[
 {
  "allow_on_submit": 0, 
  "bold": 0, 
  "collapsible": 0, 
  "collapsible_depends_on": null, 
  "columns": 0, 
  "default": null, 
  "depends_on": null, 
  "description": null, 
  "docstatus": 0, 
  "doctype": "Custom Field", 
  "dt": "Print Settings", 
  "fieldname": "compact_item_print", 
  "fieldtype": "Check", 
  "hidden": 0, 
  "ignore_user_permissions": 0, 
  "ignore_xss_filter": 0, 
  "in_global_search": 0, 
  "in_list_view": 0, 
  "in_standard_filter": 0, 
  "insert_after": "with_letterhead", 
  "label": "Compact Item Print", 
  "modified": "2017-08-14 23:01:12.128037", 
  "name": "Print Settings-compact_item_print", 
  "no_copy": 0, 
  "options": null, 
  "permlevel": 0, 
  "precision": "", 
  "print_hide": 0, 
  "print_hide_if_no_value": 0, 
  "print_width": null, 
  "read_only": 0, 
  "report_hide": 0, 
  "reqd": 0, 
  "search_index": 0, 
  "unique": 0, 
  "width": null
 }, 
 {
  "allow_on_submit": 0, 
  "bold": 0, 
  "collapsible": 0, 
  "collapsible_depends_on": null, 
  "columns": 0, 
  "default": null, 
  "depends_on": null, 
  "description": null, 
  "docstatus": 0, 
  "doctype": "Custom Field", 
  "dt": "Supplier Quotation Item", 
  "fieldname": "gst_hsn_code", 
  "fieldtype": "Data", 
  "hidden": 0, 
  "ignore_user_permissions": 0, 
  "ignore_xss_filter": 0, 
  "in_global_search": 0, 
  "in_list_view": 0, 
  "in_standard_filter": 0, 
  "insert_after": "description", 
  "label": "HSN/SAC", 
  "modified": "2017-12-01 10:17:34.520305", 
  "name": "Supplier Quotation Item-gst_hsn_code", 
  "no_copy": 0, 
  "options": "item_code.gst_hsn_code", 
  "permlevel": 0, 
  "precision": "", 
  "print_hide": 1, 
  "print_hide_if_no_value": 0, 
  "print_width": null, 
  "read_only": 0, 
  "report_hide": 0, 
  "reqd": 0, 
  "search_index": 0, 
  "unique": 0, 
  "width": null
 }, 
 {
  "allow_on_submit": 0, 
  "bold": 0, 
  "collapsible": 0, 
  "collapsible_depends_on": null, 
  "columns": 0, 
  "default": null, 
  "depends_on": null, 
  "description": null, 
  "docstatus": 0, 
  "doctype": "Custom Field", 
  "dt": "Item", 
  "fieldname": "gst_hsn_code", 
  "fieldtype": "Link", 
  "hidden": 0, 
  "ignore_user_permissions": 0, 
  "ignore_xss_filter": 0, 
  "in_global_search": 0, 
  "in_list_view": 0, 
  "in_standard_filter": 0, 
  "insert_after": "item_group", 
  "label": "HSN/SAC", 
  "modified": "2017-12-01 10:17:34.601292", 
  "name": "Item-gst_hsn_code", 
  "no_copy": 0, 
  "options": "GST HSN Code", 
  "permlevel": 0, 
  "precision": "", 
  "print_hide": 0, 
  "print_hide_if_no_value": 0, 
  "print_width": null, 
  "read_only": 0, 
  "report_hide": 0, 
  "reqd": 0, 
  "search_index": 0, 
  "unique": 0, 
  "width": null
 }, 
 {
  "allow_on_submit": 0, 
  "bold": 0, 
  "collapsible": 0, 
  "collapsible_depends_on": null, 
  "columns": 0, 
  "default": null, 
  "depends_on": null, 
  "description": null, 
  "docstatus": 0, 
  "doctype": "Custom Field", 
  "dt": "Delivery Note Item", 
  "fieldname": "gst_hsn_code", 
  "fieldtype": "Data", 
  "hidden": 0, 
  "ignore_user_permissions": 0, 
  "ignore_xss_filter": 0, 
  "in_global_search": 0, 
  "in_list_view": 0, 
  "in_standard_filter": 0, 
  "insert_after": "description", 
  "label": "HSN/SAC", 
  "modified": "2017-12-01 10:17:34.680693", 
  "name": "Delivery Note Item-gst_hsn_code", 
  "no_copy": 0, 
  "options": "item_code.gst_hsn_code", 
  "permlevel": 0, 
  "precision": "", 
  "print_hide": 1, 
  "print_hide_if_no_value": 0, 
  "print_width": null, 
  "read_only": 0, 
  "report_hide": 0, 
  "reqd": 0, 
  "search_index": 0, 
  "unique": 0, 
  "width": null
 }, 
 {
  "allow_on_submit": 0, 
  "bold": 0, 
  "collapsible": 0, 
  "collapsible_depends_on": null, 
  "columns": 0, 
  "default": null, 
  "depends_on": null, 
  "description": null, 
  "docstatus": 0, 
  "doctype": "Custom Field", 
  "dt": "Purchase Order Item", 
  "fieldname": "gst_hsn_code", 
  "fieldtype": "Data", 
  "hidden": 0, 
  "ignore_user_permissions": 0, 
  "ignore_xss_filter": 0, 
  "in_global_search": 0, 
  "in_list_view": 0, 
  "in_standard_filter": 0, 
  "insert_after": "description", 
  "label": "HSN/SAC", 
  "modified": "2017-12-01 10:17:34.757795", 
  "name": "Purchase Order Item-gst_hsn_code", 
  "no_copy": 0, 
  "options": "item_code.gst_hsn_code", 
  "permlevel": 0, 
  "precision": "", 
  "print_hide": 1, 
  "print_hide_if_no_value": 0, 
  "print_width": null, 
  "read_only": 0, 
  "report_hide": 0, 
  "reqd": 0, 
  "search_index": 0, 
  "unique": 0, 
  "width": null
 }, 
 {
  "allow_on_submit": 0, 
  "bold": 0, 
  "collapsible": 0, 
  "collapsible_depends_on": null, 
  "columns": 0, 
  "default": null, 
  "depends_on": null, 
  "description": null, 
  "docstatus": 0, 
  "doctype": "Custom Field", 
  "dt": "Purchase Invoice Item", 
  "fieldname": "gst_hsn_code", 
  "fieldtype": "Data", 
  "hidden": 0, 
  "ignore_user_permissions": 0, 
  "ignore_xss_filter": 0, 
  "in_global_search": 0, 
  "in_list_view": 0, 
  "in_standard_filter": 0, 
  "insert_after": "description", 
  "label": "HSN/SAC", 
  "modified": "2017-12-01 10:17:34.800270", 
  "name": "Purchase Invoice Item-gst_hsn_code", 
  "no_copy": 0, 
  "options": "item_code.gst_hsn_code", 
  "permlevel": 0, 
  "precision": "", 
  "print_hide": 1, 
  "print_hide_if_no_value": 0, 
  "print_width": null, 
  "read_only": 0, 
  "report_hide": 0, 
  "reqd": 0, 
  "search_index": 0, 
  "unique": 0, 
  "width": null
 }, 
 {
  "allow_on_submit": 0, 
  "bold": 0, 
  "collapsible": 0, 
  "collapsible_depends_on": null, 
  "columns": 0, 
  "default": null, 
  "depends_on": null, 
  "description": null, 
  "docstatus": 0, 
  "doctype": "Custom Field", 
  "dt": "Quotation Item", 
  "fieldname": "gst_hsn_code", 
  "fieldtype": "Data", 
  "hidden": 0, 
  "ignore_user_permissions": 0, 
  "ignore_xss_filter": 0, 
  "in_global_search": 0, 
  "in_list_view": 0, 
  "in_standard_filter": 0, 
  "insert_after": "description", 
  "label": "HSN/SAC", 
  "modified": "2017-12-01 10:17:34.862481", 
  "name": "Quotation Item-gst_hsn_code", 
  "no_copy": 0, 
  "options": "item_code.gst_hsn_code", 
  "permlevel": 0, 
  "precision": "", 
  "print_hide": 1, 
  "print_hide_if_no_value": 0, 
  "print_width": null, 
  "read_only": 0, 
  "report_hide": 0, 
  "reqd": 0, 
  "search_index": 0, 
  "unique": 0, 
  "width": null
 }, 
 {
  "allow_on_submit": 0, 
  "bold": 0, 
  "collapsible": 0, 
  "collapsible_depends_on": null, 
  "columns": 0, 
  "default": null, 
  "depends_on": null, 
  "description": null, 
  "docstatus": 0, 
  "doctype": "Custom Field", 
  "dt": "Purchase Invoice", 
  "fieldname": "supplier_gstin", 
  "fieldtype": "Data", 
  "hidden": 0, 
  "ignore_user_permissions": 0, 
  "ignore_xss_filter": 0, 
  "in_global_search": 0, 
  "in_list_view": 0, 
  "in_standard_filter": 0, 
  "insert_after": "supplier_address", 
  "label": "Supplier GSTIN", 
  "modified": "2017-12-01 10:17:34.935470", 
  "name": "Purchase Invoice-supplier_gstin", 
  "no_copy": 0, 
  "options": "supplier_address.gstin", 
  "permlevel": 0, 
  "precision": "", 
  "print_hide": 1, 
  "print_hide_if_no_value": 0, 
  "print_width": null, 
  "read_only": 0, 
  "report_hide": 0, 
  "reqd": 0, 
  "search_index": 0, 
  "unique": 0, 
  "width": null
 }, 
 {
  "allow_on_submit": 0, 
  "bold": 0, 
  "collapsible": 0, 
  "collapsible_depends_on": null, 
  "columns": 0, 
  "default": null, 
  "depends_on": null, 
  "description": null, 
  "docstatus": 0, 
  "doctype": "Custom Field", 
  "dt": "Purchase Invoice", 
  "fieldname": "company_gstin", 
  "fieldtype": "Data", 
  "hidden": 0, 
  "ignore_user_permissions": 0, 
  "ignore_xss_filter": 0, 
  "in_global_search": 0, 
  "in_list_view": 0, 
  "in_standard_filter": 0, 
  "insert_after": "shipping_address", 
  "label": "Company GSTIN", 
  "modified": "2017-12-01 10:17:35.149428", 
  "name": "Purchase Invoice-company_gstin", 
  "no_copy": 0, 
  "options": "shipping_address.gstin", 
  "permlevel": 0, 
  "precision": "", 
  "print_hide": 1, 
  "print_hide_if_no_value": 0, 
  "print_width": null, 
  "read_only": 0, 
  "report_hide": 0, 
  "reqd": 0, 
  "search_index": 0, 
  "unique": 0, 
  "width": null
 }, 
 {
  "allow_on_submit": 0, 
  "bold": 0, 
  "collapsible": 0, 
  "collapsible_depends_on": null, 
  "columns": 0, 
  "default": null, 
  "depends_on": null, 
  "description": null, 
  "docstatus": 0, 
  "doctype": "Custom Field", 
  "dt": "Sales Invoice", 
  "fieldname": "customer_gstin", 
  "fieldtype": "Data", 
  "hidden": 0, 
  "ignore_user_permissions": 0, 
  "ignore_xss_filter": 0, 
  "in_global_search": 0, 
  "in_list_view": 0, 
  "in_standard_filter": 0, 
  "insert_after": "shipping_address", 
  "label": "Customer GSTIN", 
  "modified": "2017-12-01 10:17:35.273241", 
  "name": "Sales Invoice-customer_gstin", 
  "no_copy": 0, 
  "options": "shipping_address_name.gstin", 
  "permlevel": 0, 
  "precision": "", 
  "print_hide": 1, 
  "print_hide_if_no_value": 0, 
  "print_width": null, 
  "read_only": 0, 
  "report_hide": 0, 
  "reqd": 0, 
  "search_index": 0, 
  "unique": 0, 
  "width": null
 }, 
 {
  "allow_on_submit": 0, 
  "bold": 0, 
  "collapsible": 0, 
  "collapsible_depends_on": null, 
  "columns": 0, 
  "default": null, 
  "depends_on": null, 
  "description": null, 
  "docstatus": 0, 
  "doctype": "Custom Field", 
  "dt": "Sales Invoice", 
  "fieldname": "company_gstin", 
  "fieldtype": "Data", 
  "hidden": 0, 
  "ignore_user_permissions": 0, 
  "ignore_xss_filter": 0, 
  "in_global_search": 0, 
  "in_list_view": 0, 
  "in_standard_filter": 0, 
  "insert_after": "company_address", 
  "label": "Company GSTIN", 
  "modified": "2017-12-01 10:17:35.516105", 
  "name": "Sales Invoice-company_gstin", 
  "no_copy": 0, 
  "options": "company_address.gstin", 
  "permlevel": 0, 
  "precision": "", 
  "print_hide": 1, 
  "print_hide_if_no_value": 0, 
  "print_width": null, 
  "read_only": 0, 
  "report_hide": 0, 
  "reqd": 0, 
  "search_index": 0, 
  "unique": 0, 
  "width": null
 }, 
 {
  "allow_on_submit": 1, 
  "bold": 0, 
  "collapsible": 0, 
  "collapsible_depends_on": null, 
  "columns": 0, 
  "default": null, 
  "depends_on": null, 
  "description": null, 
  "docstatus": 0, 
  "doctype": "Custom Field", 
  "dt": "Sales Invoice", 
  "fieldname": "invoice_copy", 
  "fieldtype": "Select", 
  "hidden": 0, 
  "ignore_user_permissions": 0, 
  "ignore_xss_filter": 0, 
  "in_global_search": 0, 
  "in_list_view": 0, 
  "in_standard_filter": 0, 
  "insert_after": "select_print_heading", 
  "label": "Invoice Copy", 
  "modified": "2017-12-01 10:17:35.666689", 
  "name": "Sales Invoice-invoice_copy", 
  "no_copy": 0, 
  "options": "Original for Recipient\nDuplicate for Transporter\nDuplicate for Supplier\nTriplicate for Supplier", 
  "permlevel": 0, 
  "precision": "", 
  "print_hide": 1, 
  "print_hide_if_no_value": 0, 
  "print_width": null, 
  "read_only": 0, 
  "report_hide": 0, 
  "reqd": 0, 
  "search_index": 0, 
  "unique": 0, 
  "width": null
 }, 
 {
  "allow_on_submit": 0, 
  "bold": 0, 
  "collapsible": 0, 
  "collapsible_depends_on": null, 
  "columns": 0, 
  "default": null, 
  "depends_on": null, 
  "description": null, 
  "docstatus": 0, 
  "doctype": "Custom Field", 
  "dt": "Sales Order Item", 
  "fieldname": "gst_hsn_code", 
  "fieldtype": "Data", 
  "hidden": 0, 
  "ignore_user_permissions": 0, 
  "ignore_xss_filter": 0, 
  "in_global_search": 0, 
  "in_list_view": 0, 
  "in_standard_filter": 0, 
  "insert_after": "description", 
  "label": "HSN/SAC", 
  "modified": "2017-12-01 10:17:35.816987", 
  "name": "Sales Order Item-gst_hsn_code", 
  "no_copy": 0, 
  "options": "item_code.gst_hsn_code", 
  "permlevel": 0, 
  "precision": "", 
  "print_hide": 1, 
  "print_hide_if_no_value": 0, 
  "print_width": null, 
  "read_only": 0, 
  "report_hide": 0, 
  "reqd": 0, 
  "search_index": 0, 
  "unique": 0, 
  "width": null
 }, 
 {
  "allow_on_submit": 0, 
  "bold": 0, 
  "collapsible": 0, 
  "collapsible_depends_on": null, 
  "columns": 0, 
  "default": null, 
  "depends_on": null, 
  "description": null, 
  "docstatus": 0, 
  "doctype": "Custom Field", 
  "dt": "Address", 
  "fieldname": "gstin", 
  "fieldtype": "Data", 
  "hidden": 0, 
  "ignore_user_permissions": 0, 
  "ignore_xss_filter": 0, 
  "in_global_search": 0, 
  "in_list_view": 0, 
  "in_standard_filter": 0, 
  "insert_after": "fax", 
  "label": "Party GSTIN", 
  "modified": "2017-12-01 10:17:35.886984", 
  "name": "Address-gstin", 
  "no_copy": 0, 
  "options": null, 
  "permlevel": 0, 
  "precision": "", 
  "print_hide": 0, 
  "print_hide_if_no_value": 0, 
  "print_width": null, 
  "read_only": 0, 
  "report_hide": 0, 
  "reqd": 0, 
  "search_index": 0, 
  "unique": 0, 
  "width": null
 }, 
 {
  "allow_on_submit": 0, 
  "bold": 0, 
  "collapsible": 0, 
  "collapsible_depends_on": null, 
  "columns": 0, 
  "default": null, 
  "depends_on": null, 
  "description": null, 
  "docstatus": 0, 
  "doctype": "Custom Field", 
  "dt": "Address", 
  "fieldname": "gst_state", 
  "fieldtype": "Select", 
  "hidden": 0, 
  "ignore_user_permissions": 0, 
  "ignore_xss_filter": 0, 
  "in_global_search": 0, 
  "in_list_view": 0, 
  "in_standard_filter": 0, 
  "insert_after": "gstin", 
  "label": "GST State", 
  "modified": "2017-12-01 10:17:35.917655", 
  "name": "Address-gst_state", 
  "no_copy": 0, 
  "options": "\nAndaman and Nicobar Islands\nAndhra Pradesh\nArunachal Pradesh\nAssam\nBihar\nChandigarh\nChhattisgarh\nDadra and Nagar Haveli\nDaman and Diu\nDelhi\nGoa\nGujarat\nHaryana\nHimachal Pradesh\nJammu and Kashmir\nJharkhand\nKarnataka\nKerala\nLakshadweep Islands\nMadhya Pradesh\nMaharashtra\nManipur\nMeghalaya\nMizoram\nNagaland\nOdisha\nOther Territory\nPondicherry\nPunjab\nRajasthan\nSikkim\nTamil Nadu\nTelangana\nTripura\nUttar Pradesh\nUttarakhand\nWest Bengal", 
  "permlevel": 0, 
  "precision": "", 
  "print_hide": 0, 
  "print_hide_if_no_value": 0, 
  "print_width": null, 
  "read_only": 0, 
  "report_hide": 0, 
  "reqd": 0, 
  "search_index": 0, 
  "unique": 0, 
  "width": null
 }, 
 {
  "allow_on_submit": 0, 
  "bold": 0, 
  "collapsible": 0, 
  "collapsible_depends_on": null, 
  "columns": 0, 
  "default": null, 
  "depends_on": null, 
  "description": null, 
  "docstatus": 0, 
  "doctype": "Custom Field", 
  "dt": "Address", 
  "fieldname": "gst_state_number", 
  "fieldtype": "Int", 
  "hidden": 0, 
  "ignore_user_permissions": 0, 
  "ignore_xss_filter": 0, 
  "in_global_search": 0, 
  "in_list_view": 0, 
  "in_standard_filter": 0, 
  "insert_after": "gst_state", 
  "label": "GST State Number", 
  "modified": "2017-12-01 10:17:35.961353", 
  "name": "Address-gst_state_number", 
  "no_copy": 0, 
  "options": null, 
  "permlevel": 0, 
  "precision": "", 
  "print_hide": 0, 
  "print_hide_if_no_value": 0, 
  "print_width": null, 
  "read_only": 1, 
  "report_hide": 0, 
  "reqd": 0, 
  "search_index": 0, 
  "unique": 0, 
  "width": null
 }, 
 {
  "allow_on_submit": 0, 
  "bold": 0, 
  "collapsible": 0, 
  "collapsible_depends_on": null, 
  "columns": 0, 
  "default": null, 
  "depends_on": null, 
  "description": null, 
  "docstatus": 0, 
  "doctype": "Custom Field", 
  "dt": "Sales Invoice Item", 
  "fieldname": "gst_hsn_code", 
  "fieldtype": "Data", 
  "hidden": 0, 
  "ignore_user_permissions": 0, 
  "ignore_xss_filter": 0, 
  "in_global_search": 0, 
  "in_list_view": 0, 
  "in_standard_filter": 0, 
  "insert_after": "description", 
  "label": "HSN/SAC", 
  "modified": "2017-12-01 10:17:36.006729", 
  "name": "Sales Invoice Item-gst_hsn_code", 
  "no_copy": 0, 
  "options": "item_code.gst_hsn_code", 
  "permlevel": 0, 
  "precision": "", 
  "print_hide": 1, 
  "print_hide_if_no_value": 0, 
  "print_width": null, 
  "read_only": 0, 
  "report_hide": 0, 
  "reqd": 0, 
  "search_index": 0, 
  "unique": 0, 
  "width": null
 }, 
 {
  "allow_on_submit": 0, 
  "bold": 0, 
  "collapsible": 0, 
  "collapsible_depends_on": null, 
  "columns": 0, 
  "default": null, 
  "depends_on": null, 
  "description": null, 
  "docstatus": 0, 
  "doctype": "Custom Field", 
  "dt": "Purchase Receipt Item", 
  "fieldname": "gst_hsn_code", 
  "fieldtype": "Data", 
  "hidden": 0, 
  "ignore_user_permissions": 0, 
  "ignore_xss_filter": 0, 
  "in_global_search": 0, 
  "in_list_view": 0, 
  "in_standard_filter": 0, 
  "insert_after": "description", 
  "label": "HSN/SAC", 
  "modified": "2017-12-01 10:17:36.187959", 
  "name": "Purchase Receipt Item-gst_hsn_code", 
  "no_copy": 0, 
  "options": "item_code.gst_hsn_code", 
  "permlevel": 0, 
  "precision": "", 
  "print_hide": 1, 
  "print_hide_if_no_value": 0, 
  "print_width": null, 
  "read_only": 0, 
  "report_hide": 0, 
  "reqd": 0, 
  "search_index": 0, 
  "unique": 0, 
  "width": null
 }, 
 {
  "allow_on_submit": 1, 
  "bold": 0, 
  "collapsible": 0, 
  "collapsible_depends_on": null, 
  "columns": 0, 
  "default": null, 
  "depends_on": null, 
  "description": null, 
  "docstatus": 0, 
  "doctype": "Custom Field", 
  "dt": "Material Request", 
  "fieldname": "workflow_state", 
  "fieldtype": "Link", 
  "hidden": 0, 
  "ignore_user_permissions": 0, 
  "ignore_xss_filter": 0, 
  "in_global_search": 0, 
  "in_list_view": 0, 
  "in_standard_filter": 0, 
  "insert_after": null, 
  "label": "Workflow State", 
  "modified": "2017-10-13 18:44:55.418505", 
  "name": "Material Request-workflow_state", 
  "no_copy": 0, 
  "options": "Workflow State", 
  "permlevel": 0, 
  "precision": "", 
  "print_hide": 0, 
  "print_hide_if_no_value": 0, 
  "print_width": null, 
  "read_only": 1, 
  "report_hide": 0, 
  "reqd": 0, 
  "search_index": 0, 
  "unique": 0, 
  "width": null
 }, 
 {
  "allow_on_submit": 0, 
  "bold": 0, 
  "collapsible": 0, 
  "collapsible_depends_on": null, 
  "columns": 0, 
  "default": null, 
  "depends_on": "", 
  "description": null, 
  "docstatus": 0, 
  "doctype": "Custom Field", 
  "dt": "BOM", 
  "fieldname": "sales_order_details", 
  "fieldtype": "Link", 
  "hidden": 0, 
  "ignore_user_permissions": 0, 
  "ignore_xss_filter": 0, 
  "in_global_search": 0, 
  "in_list_view": 0, 
  "in_standard_filter": 0, 
  "insert_after": "item_name", 
  "label": "Sales Order Details", 
  "modified": "2017-11-30 10:38:28.914420", 
  "name": "BOM-sales_order_details", 
  "no_copy": 0, 
  "options": "Sales Order", 
  "permlevel": 0, 
  "precision": "", 
  "print_hide": 0, 
  "print_hide_if_no_value": 0, 
  "print_width": null, 
  "read_only": 0, 
  "report_hide": 0, 
  "reqd": 0, 
  "search_index": 0, 
  "unique": 0, 
  "width": null
 }, 
 {
  "allow_on_submit": 0, 
  "bold": 0, 
  "collapsible": 0, 
  "collapsible_depends_on": null, 
  "columns": 0, 
  "default": null, 
  "depends_on": null, 
  "description": null, 
  "docstatus": 0, 
  "doctype": "Custom Field", 
  "dt": "BOM Item", 
  "fieldname": "delivery_date", 
  "fieldtype": "Date", 
  "hidden": 0, 
  "ignore_user_permissions": 0, 
  "ignore_xss_filter": 0, 
  "in_global_search": 0, 
  "in_list_view": 1, 
  "in_standard_filter": 0, 
  "insert_after": "item_name", 
  "label": "Delivery Date", 
  "modified": "2017-11-30 10:44:59.213839", 
  "name": "BOM Item-delivery_date", 
  "no_copy": 0, 
  "options": null, 
  "permlevel": 0, 
  "precision": "", 
  "print_hide": 0, 
  "print_hide_if_no_value": 0, 
  "print_width": null, 
  "read_only": 0, 
  "report_hide": 0, 
  "reqd": 0, 
  "search_index": 0, 
  "unique": 0, 
  "width": null
 }, 
 {
  "allow_on_submit": 0, 
  "bold": 0, 
  "collapsible": 0, 
  "collapsible_depends_on": null, 
  "columns": 0, 
  "default": null, 
  "depends_on": null, 
  "description": null, 
  "docstatus": 0, 
  "doctype": "Custom Field", 
  "dt": "Company", 
  "fieldname": "challido_company_name", 
  "fieldtype": "Data", 
  "hidden": 0, 
  "ignore_user_permissions": 0, 
  "ignore_xss_filter": 0, 
  "in_global_search": 0, 
  "in_list_view": 0, 
  "in_standard_filter": 0, 
  "insert_after": "challido_section_1", 
  "label": "Company Name", 
  "modified": "2017-12-01 11:33:21.727536", 
  "name": "Company-challido_company_name", 
  "no_copy": 0, 
  "options": null, 
  "permlevel": 0, 
  "precision": "", 
  "print_hide": 0, 
  "print_hide_if_no_value": 0, 
  "print_width": null, 
  "read_only": 0, 
  "report_hide": 0, 
  "reqd": 0, 
  "search_index": 0, 
  "unique": 0, 
  "width": null
 }, 
 {
  "allow_on_submit": 0, 
  "bold": 0, 
  "collapsible": 0, 
  "collapsible_depends_on": null, 
  "columns": 0, 
  "default": null, 
  "depends_on": null, 
  "description": null, 
  "docstatus": 0, 
  "doctype": "Custom Field", 
  "dt": "Purchase Order", 
  "fieldname": "challido_company_name", 
  "fieldtype": "Read Only", 
  "hidden": 0, 
  "ignore_user_permissions": 0, 
  "ignore_xss_filter": 0, 
  "in_global_search": 0, 
  "in_list_view": 0, 
  "in_standard_filter": 0, 
  "insert_after": "rely_fab_compnay_details", 
  "label": "Company Name", 
  "modified": "2017-12-01 11:34:32.163912", 
  "name": "Purchase Order-challido_company_name", 
  "no_copy": 0, 
  "options": "company.challido_company_name", 
  "permlevel": 0, 
  "precision": "", 
  "print_hide": 0, 
  "print_hide_if_no_value": 0, 
  "print_width": null, 
  "read_only": 0, 
  "report_hide": 0, 
  "reqd": 0, 
  "search_index": 0, 
  "unique": 0, 
  "width": null
 }, 
 {
  "allow_on_submit": 0, 
  "bold": 0, 
  "collapsible": 1, 
  "collapsible_depends_on": null, 
  "columns": 0, 
  "default": null, 
  "depends_on": null, 
  "description": null, 
  "docstatus": 0, 
  "doctype": "Custom Field", 
  "dt": "Purchase Order", 
  "fieldname": "rely_fab_compnay_details", 
  "fieldtype": "Section Break", 
  "hidden": 0, 
  "ignore_user_permissions": 0, 
  "ignore_xss_filter": 0, 
  "in_global_search": 0, 
  "in_list_view": 0, 
  "in_standard_filter": 0, 
  "insert_after": "next_date", 
  "label": "Rely Fab Compnay Details", 
  "modified": "2017-12-01 11:42:03.421714", 
  "name": "Purchase Order-rely_fab_compnay_details", 
  "no_copy": 0, 
  "options": null, 
  "permlevel": 0, 
  "precision": "", 
  "print_hide": 0, 
  "print_hide_if_no_value": 0, 
  "print_width": null, 
  "read_only": 0, 
  "report_hide": 0, 
  "reqd": 0, 
  "search_index": 0, 
  "unique": 0, 
  "width": null
 }, 
 {
  "allow_on_submit": 0, 
  "bold": 0, 
  "collapsible": 0, 
  "collapsible_depends_on": null, 
  "columns": 0, 
  "default": null, 
  "depends_on": null, 
  "description": null, 
  "docstatus": 0, 
  "doctype": "Custom Field", 
  "dt": "Company", 
  "fieldname": "challido_address_line_1", 
  "fieldtype": "Data", 
  "hidden": 0, 
  "ignore_user_permissions": 0, 
  "ignore_xss_filter": 0, 
  "in_global_search": 0, 
  "in_list_view": 0, 
  "in_standard_filter": 0, 
  "insert_after": "challido_company_name", 
  "label": "Address Line 1", 
  "modified": "2017-12-01 11:43:04.706839", 
  "name": "Company-challido_address_line_1", 
  "no_copy": 0, 
  "options": null, 
  "permlevel": 0, 
  "precision": "", 
  "print_hide": 0, 
  "print_hide_if_no_value": 0, 
  "print_width": null, 
  "read_only": 0, 
  "report_hide": 0, 
  "reqd": 0, 
  "search_index": 0, 
  "unique": 0, 
  "width": null
 }, 
 {
  "allow_on_submit": 0, 
  "bold": 0, 
  "collapsible": 0, 
  "collapsible_depends_on": null, 
  "columns": 0, 
  "default": null, 
  "depends_on": null, 
  "description": null, 
  "docstatus": 0, 
  "doctype": "Custom Field", 
  "dt": "Purchase Order", 
  "fieldname": "challido_address_line_1", 
  "fieldtype": "Read Only", 
  "hidden": 0, 
  "ignore_user_permissions": 0, 
  "ignore_xss_filter": 0, 
  "in_global_search": 0, 
  "in_list_view": 0, 
  "in_standard_filter": 0, 
  "insert_after": "challido_company_name", 
  "label": "Challido Address Line 1", 
  "modified": "2017-12-01 11:43:29.615304", 
  "name": "Purchase Order-challido_address_line_1", 
  "no_copy": 0, 
  "options": "company.challido_address_line_1", 
  "permlevel": 0, 
  "precision": "", 
  "print_hide": 0, 
  "print_hide_if_no_value": 0, 
  "print_width": null, 
  "read_only": 0, 
  "report_hide": 0, 
  "reqd": 0, 
  "search_index": 0, 
  "unique": 0, 
  "width": null
 }, 
 {
  "allow_on_submit": 0, 
  "bold": 0, 
  "collapsible": 0, 
  "collapsible_depends_on": null, 
  "columns": 0, 
  "default": null, 
  "depends_on": null, 
  "description": null, 
  "docstatus": 0, 
  "doctype": "Custom Field", 
  "dt": "Purchase Order", 
  "fieldname": "challido_address_line_2", 
  "fieldtype": "Read Only", 
  "hidden": 0, 
  "ignore_user_permissions": 0, 
  "ignore_xss_filter": 0, 
  "in_global_search": 0, 
  "in_list_view": 0, 
  "in_standard_filter": 0, 
  "insert_after": "challido_column1", 
  "label": "Challido Address Line 2", 
  "modified": "2017-12-01 11:43:59.843438", 
  "name": "Purchase Order-challido_address_line_2", 
  "no_copy": 0, 
  "options": "company.challido_address_line_2", 
  "permlevel": 0, 
  "precision": "", 
  "print_hide": 0, 
  "print_hide_if_no_value": 0, 
  "print_width": null, 
  "read_only": 0, 
  "report_hide": 0, 
  "reqd": 0, 
  "search_index": 0, 
  "unique": 0, 
  "width": null
 }, 
 {
  "allow_on_submit": 0, 
  "bold": 0, 
  "collapsible": 0, 
  "collapsible_depends_on": null, 
  "columns": 0, 
  "default": null, 
  "depends_on": null, 
  "description": null, 
  "docstatus": 0, 
  "doctype": "Custom Field", 
  "dt": "Company", 
  "fieldname": "challido_address_line_2", 
  "fieldtype": "Data", 
  "hidden": 0, 
  "ignore_user_permissions": 0, 
  "ignore_xss_filter": 0, 
  "in_global_search": 0, 
  "in_list_view": 0, 
  "in_standard_filter": 0, 
  "insert_after": "challido_column1", 
  "label": "Address Line 2", 
  "modified": "2017-12-01 11:44:14.889554", 
  "name": "Company-challido_address_line_2", 
  "no_copy": 0, 
  "options": null, 
  "permlevel": 0, 
  "precision": "", 
  "print_hide": 0, 
  "print_hide_if_no_value": 0, 
  "print_width": null, 
  "read_only": 0, 
  "report_hide": 0, 
  "reqd": 0, 
  "search_index": 0, 
  "unique": 0, 
  "width": null
 }, 
 {
  "allow_on_submit": 0, 
  "bold": 0, 
  "collapsible": 0, 
  "collapsible_depends_on": null, 
  "columns": 0, 
  "default": null, 
  "depends_on": null, 
  "description": null, 
  "docstatus": 0, 
  "doctype": "Custom Field", 
  "dt": "Purchase Order", 
  "fieldname": "challido_address_line_3", 
  "fieldtype": "Read Only", 
  "hidden": 0, 
  "ignore_user_permissions": 0, 
  "ignore_xss_filter": 0, 
  "in_global_search": 0, 
  "in_list_view": 0, 
  "in_standard_filter": 0, 
  "insert_after": "challido_address_line_2", 
  "label": "Challido Address Line 3", 
  "modified": "2017-12-01 11:45:26.991972", 
  "name": "Purchase Order-challido_address_line_3", 
  "no_copy": 0, 
  "options": "company.challido_address_line_3", 
  "permlevel": 0, 
  "precision": "", 
  "print_hide": 0, 
  "print_hide_if_no_value": 0, 
  "print_width": null, 
  "read_only": 0, 
  "report_hide": 0, 
  "reqd": 0, 
  "search_index": 0, 
  "unique": 0, 
  "width": null
 }, 
 {
  "allow_on_submit": 0, 
  "bold": 0, 
  "collapsible": 0, 
  "collapsible_depends_on": null, 
  "columns": 0, 
  "default": null, 
  "depends_on": null, 
  "description": null, 
  "docstatus": 0, 
  "doctype": "Custom Field", 
  "dt": "Company", 
  "fieldname": "challido_address_line_3", 
  "fieldtype": "Data", 
  "hidden": 0, 
  "ignore_user_permissions": 0, 
  "ignore_xss_filter": 0, 
  "in_global_search": 0, 
  "in_list_view": 0, 
  "in_standard_filter": 0, 
  "insert_after": "challido_address_line_2", 
  "label": "Address Line 3", 
  "modified": "2017-12-01 11:45:38.114556", 
  "name": "Company-challido_address_line_3", 
  "no_copy": 0, 
  "options": null, 
  "permlevel": 0, 
  "precision": "", 
  "print_hide": 0, 
  "print_hide_if_no_value": 0, 
  "print_width": null, 
  "read_only": 0, 
  "report_hide": 0, 
  "reqd": 0, 
  "search_index": 0, 
  "unique": 0, 
  "width": null
 }, 
 {
  "allow_on_submit": 0, 
  "bold": 0, 
  "collapsible": 0, 
  "collapsible_depends_on": null, 
  "columns": 0, 
  "default": null, 
  "depends_on": null, 
  "description": null, 
  "docstatus": 0, 
  "doctype": "Custom Field", 
  "dt": "Company", 
  "fieldname": "challido_column1", 
  "fieldtype": "Column Break", 
  "hidden": 0, 
  "ignore_user_permissions": 0, 
  "ignore_xss_filter": 0, 
  "in_global_search": 0, 
  "in_list_view": 0, 
  "in_standard_filter": 0, 
  "insert_after": "challido_phone_1", 
  "label": "", 
  "modified": "2017-12-01 11:47:31.600100", 
  "name": "Company-challido_column1", 
  "no_copy": 0, 
  "options": null, 
  "permlevel": 0, 
  "precision": "", 
  "print_hide": 0, 
  "print_hide_if_no_value": 0, 
  "print_width": null, 
  "read_only": 0, 
  "report_hide": 0, 
  "reqd": 0, 
  "search_index": 0, 
  "unique": 0, 
  "width": null
 }, 
 {
  "allow_on_submit": 0, 
  "bold": 0, 
  "collapsible": 1, 
  "collapsible_depends_on": null, 
  "columns": 0, 
  "default": null, 
  "depends_on": null, 
  "description": null, 
  "docstatus": 0, 
  "doctype": "Custom Field", 
  "dt": "Company", 
  "fieldname": "challido_section_1", 
  "fieldtype": "Section Break", 
  "hidden": 0, 
  "ignore_user_permissions": 0, 
  "ignore_xss_filter": 0, 
  "in_global_search": 0, 
  "in_list_view": 0, 
  "in_standard_filter": 0, 
  "insert_after": "delete_company_transactions", 
  "label": "Rely Fab Addres Section", 
  "modified": "2017-12-01 11:48:04.066824", 
  "name": "Company-challido_section_1", 
  "no_copy": 0, 
  "options": null, 
  "permlevel": 0, 
  "precision": "", 
  "print_hide": 0, 
  "print_hide_if_no_value": 0, 
  "print_width": null, 
  "read_only": 0, 
  "report_hide": 0, 
  "reqd": 0, 
  "search_index": 0, 
  "unique": 0, 
  "width": null
 }, 
 {
  "allow_on_submit": 0, 
  "bold": 0, 
  "collapsible": 0, 
  "collapsible_depends_on": null, 
  "columns": 0, 
  "default": null, 
  "depends_on": null, 
  "description": null, 
  "docstatus": 0, 
  "doctype": "Custom Field", 
  "dt": "Purchase Order", 
  "fieldname": "challido_column1", 
  "fieldtype": "Column Break", 
  "hidden": 0, 
  "ignore_user_permissions": 0, 
  "ignore_xss_filter": 0, 
  "in_global_search": 0, 
  "in_list_view": 0, 
  "in_standard_filter": 0, 
  "insert_after": "challido_address_line_1", 
  "label": "", 
  "modified": "2017-12-01 11:49:37.371131", 
  "name": "Purchase Order-challido_column1", 
  "no_copy": 0, 
  "options": null, 
  "permlevel": 0, 
  "precision": "", 
  "print_hide": 0, 
  "print_hide_if_no_value": 0, 
  "print_width": null, 
  "read_only": 0, 
  "report_hide": 0, 
  "reqd": 0, 
  "search_index": 0, 
  "unique": 0, 
  "width": null
 }, 
 {
  "allow_on_submit": 0, 
  "bold": 0, 
  "collapsible": 1, 
  "collapsible_depends_on": null, 
  "columns": 0, 
  "default": null, 
  "depends_on": null, 
  "description": null, 
  "docstatus": 0, 
  "doctype": "Custom Field", 
  "dt": "Company", 
  "fieldname": "challido_rely_fab_gst_section", 
  "fieldtype": "Section Break", 
  "hidden": 0, 
  "ignore_user_permissions": 0, 
  "ignore_xss_filter": 0, 
  "in_global_search": 0, 
  "in_list_view": 0, 
  "in_standard_filter": 0, 
  "insert_after": "challido_phone_2", 
  "label": "Rely Fab GST Section", 
  "modified": "2017-12-01 12:33:46.013299", 
  "name": "Company-challido_rely_fab_gst_section", 
  "no_copy": 0, 
  "options": null, 
  "permlevel": 0, 
  "precision": "", 
  "print_hide": 0, 
  "print_hide_if_no_value": 0, 
  "print_width": null, 
  "read_only": 0, 
  "report_hide": 0, 
  "reqd": 0, 
  "search_index": 0, 
  "unique": 0, 
  "width": null
 }, 
 {
  "allow_on_submit": 0, 
  "bold": 0, 
  "collapsible": 0, 
  "collapsible_depends_on": null, 
  "columns": 0, 
  "default": null, 
  "depends_on": null, 
  "description": null, 
  "docstatus": 0, 
  "doctype": "Custom Field", 
  "dt": "Company", 
  "fieldname": "gst_ref_no", 
  "fieldtype": "Data", 
  "hidden": 0, 
  "ignore_user_permissions": 0, 
  "ignore_xss_filter": 0, 
  "in_global_search": 0, 
  "in_list_view": 0, 
  "in_standard_filter": 0, 
  "insert_after": "challido_rely_fab_gst_section", 
  "label": "GST Ref No", 
  "modified": "2017-12-01 12:35:08.272804", 
  "name": "Company-gst_ref_no", 
  "no_copy": 0, 
  "options": null, 
  "permlevel": 0, 
  "precision": "", 
  "print_hide": 0, 
  "print_hide_if_no_value": 0, 
  "print_width": null, 
  "read_only": 0, 
  "report_hide": 0, 
  "reqd": 0, 
  "search_index": 0, 
  "unique": 0, 
  "width": null
 }, 
 {
  "allow_on_submit": 0, 
  "bold": 0, 
  "collapsible": 0, 
  "collapsible_depends_on": null, 
  "columns": 0, 
  "default": null, 
  "depends_on": null, 
  "description": null, 
  "docstatus": 0, 
  "doctype": "Custom Field", 
  "dt": "Company", 
  "fieldname": "commissionerate", 
  "fieldtype": "Data", 
  "hidden": 0, 
  "ignore_user_permissions": 0, 
  "ignore_xss_filter": 0, 
  "in_global_search": 0, 
  "in_list_view": 0, 
  "in_standard_filter": 0, 
  "insert_after": "gst_ref_no", 
  "label": "Commissionerate", 
  "modified": "2017-12-01 12:35:29.585894", 
  "name": "Company-commissionerate", 
  "no_copy": 0, 
  "options": null, 
  "permlevel": 0, 
  "precision": "", 
  "print_hide": 0, 
  "print_hide_if_no_value": 0, 
  "print_width": null, 
  "read_only": 0, 
  "report_hide": 0, 
  "reqd": 0, 
  "search_index": 0, 
  "unique": 0, 
  "width": null
 }, 
 {
  "allow_on_submit": 0, 
  "bold": 0, 
  "collapsible": 0, 
  "collapsible_depends_on": null, 
  "columns": 0, 
  "default": null, 
  "depends_on": null, 
  "description": null, 
  "docstatus": 0, 
  "doctype": "Custom Field", 
  "dt": "Company", 
  "fieldname": "range", 
  "fieldtype": "Data", 
  "hidden": 0, 
  "ignore_user_permissions": 0, 
  "ignore_xss_filter": 0, 
  "in_global_search": 0, 
  "in_list_view": 0, 
  "in_standard_filter": 0, 
  "insert_after": "commissionerate", 
  "label": "Range", 
  "modified": "2017-12-01 12:35:47.673001", 
  "name": "Company-range", 
  "no_copy": 0, 
  "options": null, 
  "permlevel": 0, 
  "precision": "", 
  "print_hide": 0, 
  "print_hide_if_no_value": 0, 
  "print_width": null, 
  "read_only": 0, 
  "report_hide": 0, 
  "reqd": 0, 
  "search_index": 0, 
  "unique": 0, 
  "width": null
 }, 
 {
  "allow_on_submit": 0, 
  "bold": 0, 
  "collapsible": 0, 
  "collapsible_depends_on": null, 
  "columns": 0, 
  "default": null, 
  "depends_on": null, 
  "description": null, 
  "docstatus": 0, 
  "doctype": "Custom Field", 
  "dt": "Company", 
  "fieldname": "pan_no", 
  "fieldtype": "Data", 
  "hidden": 0, 
  "ignore_user_permissions": 0, 
  "ignore_xss_filter": 0, 
  "in_global_search": 0, 
  "in_list_view": 0, 
  "in_standard_filter": 0, 
  "insert_after": "challido_column2", 
  "label": "PAN No", 
  "modified": "2017-12-01 12:36:09.827798", 
  "name": "Company-pan_no", 
  "no_copy": 0, 
  "options": null, 
  "permlevel": 0, 
  "precision": "", 
  "print_hide": 0, 
  "print_hide_if_no_value": 0, 
  "print_width": null, 
  "read_only": 0, 
  "report_hide": 0, 
  "reqd": 0, 
  "search_index": 0, 
  "unique": 0, 
  "width": null
 }, 
 {
  "allow_on_submit": 0, 
  "bold": 0, 
  "collapsible": 0, 
  "collapsible_depends_on": null, 
  "columns": 0, 
  "default": null, 
  "depends_on": null, 
  "description": null, 
  "docstatus": 0, 
  "doctype": "Custom Field", 
  "dt": "Company", 
  "fieldname": "iec_license_no", 
  "fieldtype": "Data", 
  "hidden": 0, 
  "ignore_user_permissions": 0, 
  "ignore_xss_filter": 0, 
  "in_global_search": 0, 
  "in_list_view": 0, 
  "in_standard_filter": 0, 
  "insert_after": "pan_no", 
  "label": "IEC License No", 
  "modified": "2017-12-01 12:36:32.271493", 
  "name": "Company-iec_license_no", 
  "no_copy": 0, 
  "options": null, 
  "permlevel": 0, 
  "precision": "", 
  "print_hide": 0, 
  "print_hide_if_no_value": 0, 
  "print_width": null, 
  "read_only": 0, 
  "report_hide": 0, 
  "reqd": 0, 
  "search_index": 0, 
  "unique": 0, 
  "width": null
 }, 
 {
  "allow_on_submit": 0, 
  "bold": 0, 
  "collapsible": 0, 
  "collapsible_depends_on": null, 
  "columns": 0, 
  "default": null, 
  "depends_on": null, 
  "description": null, 
  "docstatus": 0, 
  "doctype": "Custom Field", 
  "dt": "Company", 
  "fieldname": "challido_column2", 
  "fieldtype": "Column Break", 
  "hidden": 0, 
  "ignore_user_permissions": 0, 
  "ignore_xss_filter": 0, 
  "in_global_search": 0, 
  "in_list_view": 0, 
  "in_standard_filter": 0, 
  "insert_after": "range", 
  "label": "", 
  "modified": "2017-12-01 12:37:03.172203", 
  "name": "Company-challido_column2", 
  "no_copy": 0, 
  "options": null, 
  "permlevel": 0, 
  "precision": "", 
  "print_hide": 0, 
  "print_hide_if_no_value": 0, 
  "print_width": null, 
  "read_only": 0, 
  "report_hide": 0, 
  "reqd": 0, 
  "search_index": 0, 
  "unique": 0, 
  "width": null
 }, 
 {
  "allow_on_submit": 0, 
  "bold": 0, 
  "collapsible": 1, 
  "collapsible_depends_on": null, 
  "columns": 0, 
  "default": null, 
  "depends_on": null, 
  "description": null, 
  "docstatus": 0, 
  "doctype": "Custom Field", 
  "dt": "Purchase Order", 
  "fieldname": "challido_rely_fab_gst_section", 
  "fieldtype": "Section Break", 
  "hidden": 0, 
  "ignore_user_permissions": 0, 
  "ignore_xss_filter": 0, 
  "in_global_search": 0, 
  "in_list_view": 0, 
  "in_standard_filter": 0, 
  "insert_after": "challido_address_line_3", 
  "label": "Rely Fab GST Section", 
  "modified": "2017-12-01 12:41:03.179279", 
  "name": "Purchase Order-challido_rely_fab_gst_section", 
  "no_copy": 0, 
  "options": null, 
  "permlevel": 0, 
  "precision": "", 
  "print_hide": 0, 
  "print_hide_if_no_value": 0, 
  "print_width": null, 
  "read_only": 0, 
  "report_hide": 0, 
  "reqd": 0, 
  "search_index": 0, 
  "unique": 0, 
  "width": null
 }, 
 {
  "allow_on_submit": 0, 
  "bold": 0, 
  "collapsible": 0, 
  "collapsible_depends_on": null, 
  "columns": 0, 
  "default": null, 
  "depends_on": null, 
  "description": null, 
  "docstatus": 0, 
  "doctype": "Custom Field", 
  "dt": "Purchase Order", 
  "fieldname": "gst_ref_no", 
  "fieldtype": "Read Only", 
  "hidden": 0, 
  "ignore_user_permissions": 0, 
  "ignore_xss_filter": 0, 
  "in_global_search": 0, 
  "in_list_view": 0, 
  "in_standard_filter": 0, 
  "insert_after": "challido_rely_fab_gst_section", 
  "label": "GST Ref No", 
  "modified": "2017-12-01 12:42:20.174028", 
  "name": "Purchase Order-gst_ref_no", 
  "no_copy": 0, 
  "options": "company.gst_ref_no", 
  "permlevel": 0, 
  "precision": "", 
  "print_hide": 0, 
  "print_hide_if_no_value": 0, 
  "print_width": null, 
  "read_only": 0, 
  "report_hide": 0, 
  "reqd": 0, 
  "search_index": 0, 
  "unique": 0, 
  "width": null
 }, 
 {
  "allow_on_submit": 0, 
  "bold": 0, 
  "collapsible": 0, 
  "collapsible_depends_on": null, 
  "columns": 0, 
  "default": null, 
  "depends_on": null, 
  "description": null, 
  "docstatus": 0, 
  "doctype": "Custom Field", 
  "dt": "Purchase Order", 
  "fieldname": "commissionerate", 
  "fieldtype": "Read Only", 
  "hidden": 0, 
  "ignore_user_permissions": 0, 
  "ignore_xss_filter": 0, 
  "in_global_search": 0, 
  "in_list_view": 0, 
  "in_standard_filter": 0, 
  "insert_after": "gst_ref_no", 
  "label": "Commissionerate", 
  "modified": "2017-12-01 12:43:05.010613", 
  "name": "Purchase Order-commissionerate", 
  "no_copy": 0, 
  "options": "company.commissionerate", 
  "permlevel": 0, 
  "precision": "", 
  "print_hide": 0, 
  "print_hide_if_no_value": 0, 
  "print_width": null, 
  "read_only": 0, 
  "report_hide": 0, 
  "reqd": 0, 
  "search_index": 0, 
  "unique": 0, 
  "width": null
 }, 
 {
  "allow_on_submit": 0, 
  "bold": 0, 
  "collapsible": 0, 
  "collapsible_depends_on": null, 
  "columns": 0, 
  "default": null, 
  "depends_on": null, 
  "description": null, 
  "docstatus": 0, 
  "doctype": "Custom Field", 
  "dt": "Purchase Order", 
  "fieldname": "range", 
  "fieldtype": "Read Only", 
  "hidden": 0, 
  "ignore_user_permissions": 0, 
  "ignore_xss_filter": 0, 
  "in_global_search": 0, 
  "in_list_view": 0, 
  "in_standard_filter": 0, 
  "insert_after": "commissionerate", 
  "label": "Range", 
  "modified": "2017-12-01 12:43:36.377915", 
  "name": "Purchase Order-range", 
  "no_copy": 0, 
  "options": "company.range", 
  "permlevel": 0, 
  "precision": "", 
  "print_hide": 0, 
  "print_hide_if_no_value": 0, 
  "print_width": null, 
  "read_only": 0, 
  "report_hide": 0, 
  "reqd": 0, 
  "search_index": 0, 
  "unique": 0, 
  "width": null
 }, 
 {
  "allow_on_submit": 0, 
  "bold": 0, 
  "collapsible": 0, 
  "collapsible_depends_on": null, 
  "columns": 0, 
  "default": null, 
  "depends_on": null, 
  "description": null, 
  "docstatus": 0, 
  "doctype": "Custom Field", 
  "dt": "Purchase Order", 
  "fieldname": "challido_column2", 
  "fieldtype": "Column Break", 
  "hidden": 0, 
  "ignore_user_permissions": 0, 
  "ignore_xss_filter": 0, 
  "in_global_search": 0, 
  "in_list_view": 0, 
  "in_standard_filter": 0, 
  "insert_after": "project_egineer_mobile_number", 
  "label": "", 
  "modified": "2017-12-01 12:44:19.472765", 
  "name": "Purchase Order-challido_column2", 
  "no_copy": 0, 
  "options": null, 
  "permlevel": 0, 
  "precision": "", 
  "print_hide": 0, 
  "print_hide_if_no_value": 0, 
  "print_width": null, 
  "read_only": 0, 
  "report_hide": 0, 
  "reqd": 0, 
  "search_index": 0, 
  "unique": 0, 
  "width": null
 }, 
 {
  "allow_on_submit": 0, 
  "bold": 0, 
  "collapsible": 0, 
  "collapsible_depends_on": null, 
  "columns": 0, 
  "default": null, 
  "depends_on": null, 
  "description": null, 
  "docstatus": 0, 
  "doctype": "Custom Field", 
  "dt": "Purchase Order", 
  "fieldname": "pan_no", 
  "fieldtype": "Read Only", 
  "hidden": 0, 
  "ignore_user_permissions": 0, 
  "ignore_xss_filter": 0, 
  "in_global_search": 0, 
  "in_list_view": 0, 
  "in_standard_filter": 0, 
  "insert_after": "challido_column2", 
  "label": "Pan No", 
  "modified": "2017-12-01 12:45:08.798968", 
  "name": "Purchase Order-pan_no", 
  "no_copy": 0, 
  "options": "company.pan_no", 
  "permlevel": 0, 
  "precision": "", 
  "print_hide": 0, 
  "print_hide_if_no_value": 0, 
  "print_width": null, 
  "read_only": 0, 
  "report_hide": 0, 
  "reqd": 0, 
  "search_index": 0, 
  "unique": 0, 
  "width": null
 }, 
 {
  "allow_on_submit": 0, 
  "bold": 0, 
  "collapsible": 0, 
  "collapsible_depends_on": null, 
  "columns": 0, 
  "default": null, 
  "depends_on": null, 
  "description": null, 
  "docstatus": 0, 
  "doctype": "Custom Field", 
  "dt": "Purchase Order", 
  "fieldname": "iec_license_no", 
  "fieldtype": "Read Only", 
  "hidden": 0, 
  "ignore_user_permissions": 0, 
  "ignore_xss_filter": 0, 
  "in_global_search": 0, 
  "in_list_view": 0, 
  "in_standard_filter": 0, 
  "insert_after": "pan_no", 
  "label": "Iec_license_no", 
  "modified": "2017-12-01 12:45:58.582653", 
  "name": "Purchase Order-iec_license_no", 
  "no_copy": 0, 
  "options": "company.iec_license_no", 
  "permlevel": 0, 
  "precision": "", 
  "print_hide": 0, 
  "print_hide_if_no_value": 0, 
  "print_width": null, 
  "read_only": 0, 
  "report_hide": 0, 
  "reqd": 0, 
  "search_index": 0, 
  "unique": 0, 
  "width": null
 }, 
 {
  "allow_on_submit": 0, 
  "bold": 0, 
  "collapsible": 0, 
  "collapsible_depends_on": null, 
  "columns": 0, 
  "default": null, 
  "depends_on": null, 
  "description": null, 
  "docstatus": 0, 
  "doctype": "Custom Field", 
  "dt": "Company", 
  "fieldname": "project_engineer", 
  "fieldtype": "Data", 
  "hidden": 0, 
  "ignore_user_permissions": 0, 
  "ignore_xss_filter": 0, 
  "in_global_search": 0, 
  "in_list_view": 0, 
  "in_standard_filter": 0, 
  "insert_after": "change_abbr", 
  "label": "Project Engineer", 
  "modified": "2017-12-01 13:21:51.884730", 
  "name": "Company-project_engineer", 
  "no_copy": 0, 
  "options": null, 
  "permlevel": 0, 
  "precision": "", 
  "print_hide": 0, 
  "print_hide_if_no_value": 0, 
  "print_width": null, 
  "read_only": 0, 
  "report_hide": 0, 
  "reqd": 0, 
  "search_index": 0, 
  "unique": 0, 
  "width": null
 }, 
 {
  "allow_on_submit": 0, 
  "bold": 0, 
  "collapsible": 0, 
  "collapsible_depends_on": null, 
  "columns": 0, 
  "default": null, 
  "depends_on": null, 
  "description": null, 
  "docstatus": 0, 
  "doctype": "Custom Field", 
  "dt": "Company", 
  "fieldname": "project_egineer_mobile_number", 
  "fieldtype": "Data", 
  "hidden": 0, 
  "ignore_user_permissions": 0, 
  "ignore_xss_filter": 0, 
  "in_global_search": 0, 
  "in_list_view": 0, 
  "in_standard_filter": 0, 
  "insert_after": "domain", 
  "label": "Project Egineer Mobile Number", 
  "modified": "2017-12-01 13:23:43.651295", 
  "name": "Company-project_egineer_mobile_number", 
  "no_copy": 0, 
  "options": null, 
  "permlevel": 0, 
  "precision": "", 
  "print_hide": 0, 
  "print_hide_if_no_value": 0, 
  "print_width": null, 
  "read_only": 0, 
  "report_hide": 0, 
  "reqd": 0, 
  "search_index": 0, 
  "unique": 0, 
  "width": null
 }, 
 {
  "allow_on_submit": 0, 
  "bold": 0, 
  "collapsible": 0, 
  "collapsible_depends_on": null, 
  "columns": 0, 
  "default": null, 
  "depends_on": null, 
  "description": null, 
  "docstatus": 0, 
  "doctype": "Custom Field", 
  "dt": "Purchase Order", 
  "fieldname": "project_engineer", 
  "fieldtype": "Read Only", 
  "hidden": 0, 
  "ignore_user_permissions": 0, 
  "ignore_xss_filter": 0, 
  "in_global_search": 0, 
  "in_list_view": 0, 
  "in_standard_filter": 0, 
  "insert_after": "iec_license_no", 
  "label": "Project Engineer", 
  "modified": "2017-12-01 13:25:04.078149", 
  "name": "Purchase Order-project_engineer", 
  "no_copy": 0, 
  "options": "company.project_engineer", 
  "permlevel": 0, 
  "precision": "", 
  "print_hide": 0, 
  "print_hide_if_no_value": 0, 
  "print_width": null, 
  "read_only": 0, 
  "report_hide": 0, 
  "reqd": 0, 
  "search_index": 0, 
  "unique": 0, 
  "width": null
 }, 
 {
  "allow_on_submit": 0, 
  "bold": 0, 
  "collapsible": 0, 
  "collapsible_depends_on": null, 
  "columns": 0, 
  "default": null, 
  "depends_on": null, 
  "description": null, 
  "docstatus": 0, 
  "doctype": "Custom Field", 
  "dt": "Purchase Order", 
  "fieldname": "project_egineer_mobile_number", 
  "fieldtype": "Read Only", 
  "hidden": 0, 
  "ignore_user_permissions": 0, 
  "ignore_xss_filter": 0, 
  "in_global_search": 0, 
  "in_list_view": 0, 
  "in_standard_filter": 0, 
  "insert_after": "range", 
  "label": "Project Egineer Mobile Number", 
  "modified": "2017-12-01 13:25:52.902334", 
  "name": "Purchase Order-project_egineer_mobile_number", 
  "no_copy": 0, 
  "options": "company.project_egineer_mobile_number", 
  "permlevel": 0, 
  "precision": "", 
  "print_hide": 0, 
  "print_hide_if_no_value": 0, 
  "print_width": null, 
  "read_only": 0, 
  "report_hide": 0, 
  "reqd": 0, 
  "search_index": 0, 
  "unique": 0, 
  "width": null
 }, 
 {
  "allow_on_submit": 0, 
  "bold": 0, 
  "collapsible": 0, 
  "collapsible_depends_on": null, 
  "columns": 0, 
  "default": null, 
  "depends_on": null, 
  "description": null, 
  "docstatus": 0, 
  "doctype": "Custom Field", 
  "dt": "Company", 
  "fieldname": "challido_email_1", 
  "fieldtype": "Data", 
  "hidden": 0, 
  "ignore_user_permissions": 0, 
  "ignore_xss_filter": 0, 
  "in_global_search": 0, 
  "in_list_view": 0, 
  "in_standard_filter": 0, 
  "insert_after": "challido_address_line_1", 
  "label": "Email 1", 
  "modified": "2017-12-04 10:51:35.336882", 
  "name": "Company-challido_email_1", 
  "no_copy": 0, 
  "options": null, 
  "permlevel": 0, 
  "precision": "", 
  "print_hide": 0, 
  "print_hide_if_no_value": 0, 
  "print_width": null, 
  "read_only": 0, 
  "report_hide": 0, 
  "reqd": 0, 
  "search_index": 0, 
  "unique": 0, 
  "width": null
 }, 
 {
  "allow_on_submit": 0, 
  "bold": 0, 
  "collapsible": 0, 
  "collapsible_depends_on": null, 
  "columns": 0, 
  "default": null, 
  "depends_on": null, 
  "description": null, 
  "docstatus": 0, 
  "doctype": "Custom Field", 
  "dt": "Company", 
  "fieldname": "challido_email_2", 
  "fieldtype": "Data", 
  "hidden": 0, 
  "ignore_user_permissions": 0, 
  "ignore_xss_filter": 0, 
  "in_global_search": 0, 
  "in_list_view": 0, 
  "in_standard_filter": 0, 
  "insert_after": "challido_address_line_3", 
  "label": "Email 2", 
  "modified": "2017-12-04 10:51:35.763611", 
  "name": "Company-challido_email_2", 
  "no_copy": 0, 
  "options": null, 
  "permlevel": 0, 
  "precision": "", 
  "print_hide": 0, 
  "print_hide_if_no_value": 0, 
  "print_width": null, 
  "read_only": 0, 
  "report_hide": 0, 
  "reqd": 0, 
  "search_index": 0, 
  "unique": 0, 
  "width": null
 }, 
 {
  "allow_on_submit": 0, 
  "bold": 0, 
  "collapsible": 0, 
  "collapsible_depends_on": null, 
  "columns": 0, 
  "default": null, 
  "depends_on": null, 
  "description": null, 
  "docstatus": 0, 
  "doctype": "Custom Field", 
  "dt": "Company", 
  "fieldname": "challido_phone_1", 
  "fieldtype": "Data", 
  "hidden": 0, 
  "ignore_user_permissions": 0, 
  "ignore_xss_filter": 0, 
  "in_global_search": 0, 
  "in_list_view": 0, 
  "in_standard_filter": 0, 
  "insert_after": "challido_email_1", 
  "label": "Phone 1", 
  "modified": "2017-12-04 10:52:15.453493", 
  "name": "Company-challido_phone_1", 
  "no_copy": 0, 
  "options": null, 
  "permlevel": 0, 
  "precision": "", 
  "print_hide": 0, 
  "print_hide_if_no_value": 0, 
  "print_width": null, 
  "read_only": 0, 
  "report_hide": 0, 
  "reqd": 0, 
  "search_index": 0, 
  "unique": 0, 
  "width": null
 }, 
 {
  "allow_on_submit": 0, 
  "bold": 0, 
  "collapsible": 0, 
  "collapsible_depends_on": null, 
  "columns": 0, 
  "default": null, 
  "depends_on": null, 
  "description": null, 
  "docstatus": 0, 
  "doctype": "Custom Field", 
  "dt": "Company", 
  "fieldname": "challido_phone_2", 
  "fieldtype": "Data", 
  "hidden": 0, 
  "ignore_user_permissions": 0, 
  "ignore_xss_filter": 0, 
  "in_global_search": 0, 
  "in_list_view": 0, 
  "in_standard_filter": 0, 
  "insert_after": "challido_email_2", 
  "label": "Phone 2", 
  "modified": "2017-12-04 10:52:15.981164", 
  "name": "Company-challido_phone_2", 
  "no_copy": 0, 
  "options": null, 
  "permlevel": 0, 
  "precision": "", 
  "print_hide": 0, 
  "print_hide_if_no_value": 0, 
  "print_width": null, 
  "read_only": 0, 
  "report_hide": 0, 
  "reqd": 0, 
  "search_index": 0, 
  "unique": 0, 
  "width": null
 }, 
 {
  "allow_on_submit": 0, 
  "bold": 0, 
  "collapsible": 1, 
  "collapsible_depends_on": null, 
  "columns": 0, 
  "default": null, 
  "depends_on": null, 
  "description": null, 
  "docstatus": 0, 
  "doctype": "Custom Field", 
  "dt": "Quotation", 
  "fieldname": "company_address_", 
  "fieldtype": "Section Break", 
  "hidden": 0, 
  "ignore_user_permissions": 0, 
  "ignore_xss_filter": 0, 
  "in_global_search": 0, 
  "in_list_view": 0, 
  "in_standard_filter": 0, 
  "insert_after": "supplier_quotation", 
  "label": "Company Address ", 
  "modified": "2017-12-04 10:55:49.469767", 
  "name": "Quotation-company_address_", 
  "no_copy": 0, 
  "options": null, 
  "permlevel": 0, 
  "precision": "", 
  "print_hide": 0, 
  "print_hide_if_no_value": 0, 
  "print_width": null, 
  "read_only": 0, 
  "report_hide": 0, 
  "reqd": 0, 
  "search_index": 0, 
  "unique": 0, 
  "width": null
 }, 
 {
  "allow_on_submit": 0, 
  "bold": 0, 
  "collapsible": 0, 
  "collapsible_depends_on": null, 
  "columns": 0, 
  "default": null, 
  "depends_on": null, 
  "description": null, 
  "docstatus": 0, 
  "doctype": "Custom Field", 
  "dt": "Quotation", 
  "fieldname": "challido_company_name", 
  "fieldtype": "Read Only", 
  "hidden": 0, 
  "ignore_user_permissions": 0, 
  "ignore_xss_filter": 0, 
  "in_global_search": 0, 
  "in_list_view": 0, 
  "in_standard_filter": 0, 
  "insert_after": "company_address_", 
  "label": "Company Name", 
  "modified": "2017-12-04 10:56:48.374499", 
  "name": "Quotation-challido_company_name", 
  "no_copy": 0, 
  "options": "company.challido_company_name", 
  "permlevel": 0, 
  "precision": "", 
  "print_hide": 0, 
  "print_hide_if_no_value": 0, 
  "print_width": null, 
  "read_only": 0, 
  "report_hide": 0, 
  "reqd": 0, 
  "search_index": 0, 
  "unique": 0, 
  "width": null
 }, 
 {
  "allow_on_submit": 0, 
  "bold": 0, 
  "collapsible": 0, 
  "collapsible_depends_on": null, 
  "columns": 0, 
  "default": null, 
  "depends_on": null, 
  "description": null, 
  "docstatus": 0, 
  "doctype": "Custom Field", 
  "dt": "Quotation", 
  "fieldname": "challido_address_line_1", 
  "fieldtype": "Read Only", 
  "hidden": 0, 
  "ignore_user_permissions": 0, 
  "ignore_xss_filter": 0, 
  "in_global_search": 0, 
  "in_list_view": 0, 
  "in_standard_filter": 0, 
  "insert_after": "challido_company_name", 
  "label": "Address Line 1", 
  "modified": "2017-12-04 10:57:35.859336", 
  "name": "Quotation-challido_address_line_1", 
  "no_copy": 0, 
  "options": "company.challido_address_line_1", 
  "permlevel": 0, 
  "precision": "", 
  "print_hide": 0, 
  "print_hide_if_no_value": 0, 
  "print_width": null, 
  "read_only": 0, 
  "report_hide": 0, 
  "reqd": 0, 
  "search_index": 0, 
  "unique": 0, 
  "width": null
 }, 
 {
  "allow_on_submit": 0, 
  "bold": 0, 
  "collapsible": 0, 
  "collapsible_depends_on": null, 
  "columns": 0, 
  "default": null, 
  "depends_on": null, 
  "description": null, 
  "docstatus": 0, 
  "doctype": "Custom Field", 
  "dt": "Quotation", 
  "fieldname": "challido_email_1", 
  "fieldtype": "Read Only", 
  "hidden": 0, 
  "ignore_user_permissions": 0, 
  "ignore_xss_filter": 0, 
  "in_global_search": 0, 
  "in_list_view": 0, 
  "in_standard_filter": 0, 
  "insert_after": "challido_address_line_1", 
  "label": "Email 1", 
  "modified": "2017-12-04 10:57:36.498540", 
  "name": "Quotation-challido_email_1", 
  "no_copy": 0, 
  "options": "company.challido_email_1", 
  "permlevel": 0, 
  "precision": "", 
  "print_hide": 0, 
  "print_hide_if_no_value": 0, 
  "print_width": null, 
  "read_only": 0, 
  "report_hide": 0, 
  "reqd": 0, 
  "search_index": 0, 
  "unique": 0, 
  "width": null
 }, 
 {
  "allow_on_submit": 0, 
  "bold": 0, 
  "collapsible": 0, 
  "collapsible_depends_on": null, 
  "columns": 0, 
  "default": null, 
  "depends_on": null, 
  "description": null, 
  "docstatus": 0, 
  "doctype": "Custom Field", 
  "dt": "Quotation", 
  "fieldname": "challido_phone_1", 
  "fieldtype": "Read Only", 
  "hidden": 0, 
  "ignore_user_permissions": 0, 
  "ignore_xss_filter": 0, 
  "in_global_search": 0, 
  "in_list_view": 0, 
  "in_standard_filter": 0, 
  "insert_after": "challido_email_1", 
  "label": "Phone 1", 
  "modified": "2017-12-04 10:58:12.330031", 
  "name": "Quotation-challido_phone_1", 
  "no_copy": 0, 
  "options": "company.challido_phone_1", 
  "permlevel": 0, 
  "precision": "", 
  "print_hide": 0, 
  "print_hide_if_no_value": 0, 
  "print_width": null, 
  "read_only": 0, 
  "report_hide": 0, 
  "reqd": 0, 
  "search_index": 0, 
  "unique": 0, 
  "width": null
 }, 
 {
  "allow_on_submit": 0, 
  "bold": 0, 
  "collapsible": 0, 
  "collapsible_depends_on": null, 
  "columns": 0, 
  "default": null, 
  "depends_on": null, 
  "description": null, 
  "docstatus": 0, 
  "doctype": "Custom Field", 
  "dt": "Quotation", 
  "fieldname": "challido_column1", 
  "fieldtype": "Column Break", 
  "hidden": 0, 
  "ignore_user_permissions": 0, 
  "ignore_xss_filter": 0, 
  "in_global_search": 0, 
  "in_list_view": 0, 
  "in_standard_filter": 0, 
  "insert_after": "challido_phone_1", 
  "label": "", 
  "modified": "2017-12-04 10:58:12.830988", 
  "name": "Quotation-challido_column1", 
  "no_copy": 0, 
  "options": null, 
  "permlevel": 0, 
  "precision": "", 
  "print_hide": 0, 
  "print_hide_if_no_value": 0, 
  "print_width": null, 
  "read_only": 0, 
  "report_hide": 0, 
  "reqd": 0, 
  "search_index": 0, 
  "unique": 0, 
  "width": null
 }, 
 {
  "allow_on_submit": 0, 
  "bold": 0, 
  "collapsible": 0, 
  "collapsible_depends_on": null, 
  "columns": 0, 
  "default": null, 
  "depends_on": null, 
  "description": null, 
  "docstatus": 0, 
  "doctype": "Custom Field", 
  "dt": "Quotation", 
  "fieldname": "challido_address_line_2", 
  "fieldtype": "Read Only", 
  "hidden": 0, 
  "ignore_user_permissions": 0, 
  "ignore_xss_filter": 0, 
  "in_global_search": 0, 
  "in_list_view": 0, 
  "in_standard_filter": 0, 
  "insert_after": "challido_column1", 
  "label": "Address Line 2", 
  "modified": "2017-12-04 11:00:29.330791", 
  "name": "Quotation-challido_address_line_2", 
  "no_copy": 0, 
  "options": "company.challido_address_line_2", 
  "permlevel": 0, 
  "precision": "", 
  "print_hide": 0, 
  "print_hide_if_no_value": 0, 
  "print_width": null, 
  "read_only": 0, 
  "report_hide": 0, 
  "reqd": 0, 
  "search_index": 0, 
  "unique": 0, 
  "width": null
 }, 
 {
  "allow_on_submit": 0, 
  "bold": 0, 
  "collapsible": 0, 
  "collapsible_depends_on": null, 
  "columns": 0, 
  "default": null, 
  "depends_on": null, 
  "description": null, 
  "docstatus": 0, 
  "doctype": "Custom Field", 
  "dt": "Quotation", 
  "fieldname": "challido_address_line_3", 
  "fieldtype": "Read Only", 
  "hidden": 0, 
  "ignore_user_permissions": 0, 
  "ignore_xss_filter": 0, 
  "in_global_search": 0, 
  "in_list_view": 0, 
  "in_standard_filter": 0, 
  "insert_after": "challido_address_line_2", 
  "label": "Address line 3", 
  "modified": "2017-12-04 11:01:38.486384", 
  "name": "Quotation-challido_address_line_3", 
  "no_copy": 0, 
  "options": "company.challido_address_line_3", 
  "permlevel": 0, 
  "precision": "", 
  "print_hide": 0, 
  "print_hide_if_no_value": 0, 
  "print_width": null, 
  "read_only": 0, 
  "report_hide": 0, 
  "reqd": 0, 
  "search_index": 0, 
  "unique": 0, 
  "width": null
 }, 
 {
  "allow_on_submit": 0, 
  "bold": 0, 
  "collapsible": 0, 
  "collapsible_depends_on": null, 
  "columns": 0, 
  "default": null, 
  "depends_on": null, 
  "description": null, 
  "docstatus": 0, 
  "doctype": "Custom Field", 
  "dt": "Quotation", 
  "fieldname": "challido_email_2", 
  "fieldtype": "Read Only", 
  "hidden": 0, 
  "ignore_user_permissions": 0, 
  "ignore_xss_filter": 0, 
  "in_global_search": 0, 
  "in_list_view": 0, 
  "in_standard_filter": 0, 
  "insert_after": "challido_address_line_3", 
  "label": "Email 2", 
  "modified": "2017-12-04 11:02:24.917413", 
  "name": "Quotation-challido_email_2", 
  "no_copy": 0, 
  "options": "company.challido_email_2", 
  "permlevel": 0, 
  "precision": "", 
  "print_hide": 0, 
  "print_hide_if_no_value": 0, 
  "print_width": null, 
  "read_only": 0, 
  "report_hide": 0, 
  "reqd": 0, 
  "search_index": 0, 
  "unique": 0, 
  "width": null
 }, 
 {
  "allow_on_submit": 0, 
  "bold": 0, 
  "collapsible": 0, 
  "collapsible_depends_on": null, 
  "columns": 0, 
  "default": null, 
  "depends_on": null, 
  "description": null, 
  "docstatus": 0, 
  "doctype": "Custom Field", 
  "dt": "Quotation", 
  "fieldname": "challido_phone_2", 
  "fieldtype": "Read Only", 
  "hidden": 0, 
  "ignore_user_permissions": 0, 
  "ignore_xss_filter": 0, 
  "in_global_search": 0, 
  "in_list_view": 0, 
  "in_standard_filter": 0, 
  "insert_after": "challido_email_2", 
  "label": "Phone 2", 
  "modified": "2017-12-04 11:02:47.203069", 
  "name": "Quotation-challido_phone_2", 
  "no_copy": 0, 
  "options": "company.challido_phone_2", 
  "permlevel": 0, 
  "precision": "", 
  "print_hide": 0, 
  "print_hide_if_no_value": 0, 
  "print_width": null, 
  "read_only": 0, 
  "report_hide": 0, 
  "reqd": 0, 
  "search_index": 0, 
  "unique": 0, 
  "width": null
 }, 
 {
  "allow_on_submit": 0, 
  "bold": 0, 
  "collapsible": 0, 
  "collapsible_depends_on": null, 
  "columns": 0, 
  "default": null, 
  "depends_on": null, 
  "description": null, 
  "docstatus": 0, 
  "doctype": "Custom Field", 
  "dt": "Customer", 
  "fieldname": "contact_person", 
  "fieldtype": "Data", 
  "hidden": 0, 
  "ignore_user_permissions": 0, 
  "ignore_xss_filter": 0, 
  "in_global_search": 0, 
  "in_list_view": 0, 
  "in_standard_filter": 0, 
  "insert_after": "customer_type", 
  "label": "Contact Person", 
  "modified": "2017-12-04 11:44:12.554055", 
  "name": "Customer-contact_person", 
  "no_copy": 0, 
  "options": null, 
  "permlevel": 0, 
  "precision": "", 
  "print_hide": 0, 
  "print_hide_if_no_value": 0, 
  "print_width": null, 
  "read_only": 0, 
  "report_hide": 0, 
  "reqd": 0, 
  "search_index": 0, 
  "unique": 0, 
  "width": null
 }, 
 {
  "allow_on_submit": 0, 
  "bold": 0, 
  "collapsible": 0, 
  "collapsible_depends_on": null, 
  "columns": 0, 
  "default": null, 
  "depends_on": null, 
  "description": null, 
  "docstatus": 0, 
  "doctype": "Custom Field", 
  "dt": "Quotation", 
  "fieldname": "challido_contact_person", 
  "fieldtype": "Read Only", 
  "hidden": 0, 
  "ignore_user_permissions": 0, 
  "ignore_xss_filter": 0, 
  "in_global_search": 0, 
  "in_list_view": 0, 
  "in_standard_filter": 0, 
  "insert_after": "challido_customer_details", 
  "label": "Contact Person", 
  "modified": "2017-12-04 12:04:55.180659", 
  "name": "Quotation-challido_contact_person", 
  "no_copy": 0, 
  "options": "customer.contact_person", 
  "permlevel": 0, 
  "precision": "", 
  "print_hide": 0, 
  "print_hide_if_no_value": 0, 
  "print_width": null, 
  "read_only": 0, 
  "report_hide": 0, 
  "reqd": 0, 
  "search_index": 0, 
  "unique": 0, 
  "width": null
 }, 
 {
  "allow_on_submit": 0, 
  "bold": 0, 
  "collapsible": 0, 
  "collapsible_depends_on": null, 
  "columns": 0, 
  "default": null, 
  "depends_on": null, 
  "description": null, 
  "docstatus": 0, 
  "doctype": "Custom Field", 
  "dt": "Quotation", 
  "fieldname": "challido_tender_ref_no", 
  "fieldtype": "Data", 
  "hidden": 0, 
  "ignore_user_permissions": 0, 
  "ignore_xss_filter": 0, 
  "in_global_search": 0, 
  "in_list_view": 0, 
  "in_standard_filter": 0, 
  "insert_after": "customer_name", 
  "label": "Tender Ref NO", 
  "modified": "2017-12-04 12:12:49.671312", 
  "name": "Quotation-challido_tender_ref_no", 
  "no_copy": 0, 
  "options": null, 
  "permlevel": 0, 
  "precision": "", 
  "print_hide": 0, 
  "print_hide_if_no_value": 0, 
  "print_width": null, 
  "read_only": 0, 
  "report_hide": 0, 
  "reqd": 0, 
  "search_index": 0, 
  "unique": 0, 
  "width": null
 }, 
 {
  "allow_on_submit": 0, 
  "bold": 0, 
  "collapsible": 0, 
  "collapsible_depends_on": null, 
  "columns": 0, 
  "default": null, 
  "depends_on": null, 
  "description": null, 
  "docstatus": 0, 
  "doctype": "Custom Field", 
  "dt": "Quotation", 
  "fieldname": "challido_tender_date", 
  "fieldtype": "Date", 
  "hidden": 0, 
  "ignore_user_permissions": 0, 
  "ignore_xss_filter": 0, 
  "in_global_search": 0, 
  "in_list_view": 0, 
  "in_standard_filter": 0, 
  "insert_after": "challido_tender_ref_no", 
  "label": "Tender Date", 
  "modified": "2017-12-04 12:13:27.114544", 
  "name": "Quotation-challido_tender_date", 
  "no_copy": 0, 
  "options": null, 
  "permlevel": 0, 
  "precision": "", 
  "print_hide": 0, 
  "print_hide_if_no_value": 0, 
  "print_width": null, 
  "read_only": 0, 
  "report_hide": 0, 
  "reqd": 0, 
  "search_index": 0, 
  "unique": 0, 
  "width": null
 }, 
 {
  "allow_on_submit": 0, 
  "bold": 0, 
  "collapsible": 0, 
  "collapsible_depends_on": null, 
  "columns": 0, 
  "default": null, 
  "depends_on": null, 
  "description": null, 
  "docstatus": 0, 
  "doctype": "Custom Field", 
  "dt": "Quotation", 
  "fieldname": "challido_customer_details", 
  "fieldtype": "Section Break", 
  "hidden": 0, 
  "ignore_user_permissions": 0, 
  "ignore_xss_filter": 0, 
  "in_global_search": 0, 
  "in_list_view": 0, 
  "in_standard_filter": 0, 
  "insert_after": "challido_phone_2", 
  "label": "Challido Customer Details", 
  "modified": "2017-12-04 12:24:13.643677", 
  "name": "Quotation-challido_customer_details", 
  "no_copy": 0, 
  "options": null, 
  "permlevel": 0, 
  "precision": "", 
  "print_hide": 0, 
  "print_hide_if_no_value": 0, 
  "print_width": null, 
  "read_only": 0, 
  "report_hide": 0, 
  "reqd": 0, 
  "search_index": 0, 
  "unique": 0, 
  "width": null
 }, 
 {
  "allow_on_submit": 0, 
  "bold": 0, 
  "collapsible": 0, 
  "collapsible_depends_on": null, 
  "columns": 0, 
  "default": null, 
  "depends_on": null, 
  "description": null, 
  "docstatus": 0, 
  "doctype": "Custom Field", 
  "dt": "Customer", 
  "fieldname": "constact_no", 
  "fieldtype": "Data", 
  "hidden": 0, 
  "ignore_user_permissions": 0, 
  "ignore_xss_filter": 0, 
  "in_global_search": 0, 
  "in_list_view": 0, 
  "in_standard_filter": 0, 
  "insert_after": "contact_person", 
  "label": "Contact No", 
  "modified": "2017-12-04 12:25:22.875012", 
  "name": "Customer-constact_no", 
  "no_copy": 0, 
  "options": null, 
  "permlevel": 0, 
  "precision": "", 
  "print_hide": 0, 
  "print_hide_if_no_value": 0, 
  "print_width": null, 
  "read_only": 0, 
  "report_hide": 0, 
  "reqd": 0, 
  "search_index": 0, 
  "unique": 0, 
  "width": null
 }, 
 {
  "allow_on_submit": 0, 
  "bold": 0, 
  "collapsible": 0, 
  "collapsible_depends_on": null, 
  "columns": 0, 
  "default": null, 
  "depends_on": null, 
  "description": null, 
  "docstatus": 0, 
  "doctype": "Custom Field", 
  "dt": "Customer", 
  "fieldname": "email_id", 
  "fieldtype": "Data", 
  "hidden": 0, 
  "ignore_user_permissions": 0, 
  "ignore_xss_filter": 0, 
  "in_global_search": 0, 
  "in_list_view": 0, 
  "in_standard_filter": 0, 
  "insert_after": "constact_no", 
  "label": "Email Id", 
  "modified": "2017-12-04 12:25:23.267631", 
  "name": "Customer-email_id", 
  "no_copy": 0, 
  "options": null, 
  "permlevel": 0, 
  "precision": "", 
  "print_hide": 0, 
  "print_hide_if_no_value": 0, 
  "print_width": null, 
  "read_only": 0, 
  "report_hide": 0, 
  "reqd": 0, 
  "search_index": 0, 
  "unique": 0, 
  "width": null
 }, 
 {
  "allow_on_submit": 0, 
  "bold": 0, 
  "collapsible": 0, 
  "collapsible_depends_on": null, 
  "columns": 0, 
  "default": null, 
  "depends_on": null, 
  "description": null, 
  "docstatus": 0, 
  "doctype": "Custom Field", 
  "dt": "Quotation", 
  "fieldname": "challido_contact_no", 
  "fieldtype": "Read Only", 
  "hidden": 0, 
  "ignore_user_permissions": 0, 
  "ignore_xss_filter": 0, 
  "in_global_search": 0, 
  "in_list_view": 0, 
  "in_standard_filter": 0, 
  "insert_after": "challido_contact_person", 
  "label": "Contact No", 
  "modified": "2017-12-04 12:26:08.518315", 
  "name": "Quotation-challido_contact_no", 
  "no_copy": 0, 
  "options": "customer.constact_no", 
  "permlevel": 0, 
  "precision": "", 
  "print_hide": 0, 
  "print_hide_if_no_value": 0, 
  "print_width": null, 
  "read_only": 0, 
  "report_hide": 0, 
  "reqd": 0, 
  "search_index": 0, 
  "unique": 0, 
  "width": null
 }, 
 {
  "allow_on_submit": 0, 
  "bold": 0, 
  "collapsible": 0, 
  "collapsible_depends_on": null, 
  "columns": 0, 
  "default": null, 
  "depends_on": null, 
  "description": null, 
  "docstatus": 0, 
  "doctype": "Custom Field", 
  "dt": "Quotation", 
  "fieldname": "challido_column2", 
  "fieldtype": "Column Break", 
  "hidden": 0, 
  "ignore_user_permissions": 0, 
  "ignore_xss_filter": 0, 
  "in_global_search": 0, 
  "in_list_view": 0, 
  "in_standard_filter": 0, 
  "insert_after": "challido_contact_no", 
  "label": "", 
  "modified": "2017-12-04 12:26:09.077901", 
  "name": "Quotation-challido_column2", 
  "no_copy": 0, 
  "options": null, 
  "permlevel": 0, 
  "precision": "", 
  "print_hide": 0, 
  "print_hide_if_no_value": 0, 
  "print_width": null, 
  "read_only": 0, 
  "report_hide": 0, 
  "reqd": 0, 
  "search_index": 0, 
  "unique": 0, 
  "width": null
 }, 
 {
  "allow_on_submit": 0, 
  "bold": 0, 
  "collapsible": 0, 
  "collapsible_depends_on": null, 
  "columns": 0, 
  "default": null, 
  "depends_on": null, 
  "description": null, 
  "docstatus": 0, 
  "doctype": "Custom Field", 
  "dt": "Quotation", 
  "fieldname": "challido_email_id", 
  "fieldtype": "Read Only", 
  "hidden": 0, 
  "ignore_user_permissions": 0, 
  "ignore_xss_filter": 0, 
  "in_global_search": 0, 
  "in_list_view": 0, 
  "in_standard_filter": 0, 
  "insert_after": "challido_column2", 
  "label": "Email Id", 
  "modified": "2017-12-04 12:26:54.074344", 
  "name": "Quotation-challido_email_id", 
  "no_copy": 0, 
  "options": "customer.email_id", 
  "permlevel": 0, 
  "precision": "", 
  "print_hide": 0, 
  "print_hide_if_no_value": 0, 
  "print_width": null, 
  "read_only": 0, 
  "report_hide": 0, 
  "reqd": 0, 
  "search_index": 0, 
  "unique": 0, 
  "width": null
 }, 
 {
  "allow_on_submit": 0, 
  "bold": 0, 
  "collapsible": 0, 
  "collapsible_depends_on": null, 
  "columns": 0, 
  "default": null, 
  "depends_on": null, 
  "description": null, 
  "docstatus": 0, 
  "doctype": "Custom Field", 
  "dt": "Company", 
  "fieldname": "tin_no", 
  "fieldtype": "Data", 
  "hidden": 0, 
  "ignore_user_permissions": 0, 
  "ignore_xss_filter": 0, 
  "in_global_search": 0, 
  "in_list_view": 0, 
  "in_standard_filter": 0, 
  "insert_after": "iec_license_no", 
  "label": "TIN No", 
  "modified": "2017-12-04 12:56:38.775791", 
  "name": "Company-tin_no", 
  "no_copy": 0, 
  "options": null, 
  "permlevel": 0, 
  "precision": "", 
  "print_hide": 0, 
  "print_hide_if_no_value": 0, 
  "print_width": null, 
  "read_only": 0, 
  "report_hide": 0, 
  "reqd": 0, 
  "search_index": 0, 
  "unique": 0, 
  "width": null
 }, 
 {
  "allow_on_submit": 0, 
  "bold": 0, 
  "collapsible": 1, 
  "collapsible_depends_on": null, 
  "columns": 0, 
  "default": null, 
  "depends_on": null, 
  "description": null, 
  "docstatus": 0, 
  "doctype": "Custom Field", 
  "dt": "Quotation", 
  "fieldname": "relyfab_gst_details", 
  "fieldtype": "Section Break", 
  "hidden": 0, 
  "ignore_user_permissions": 0, 
  "ignore_xss_filter": 0, 
  "in_global_search": 0, 
  "in_list_view": 0, 
  "in_standard_filter": 0, 
  "insert_after": "challido_email_id", 
  "label": "RelyFab GST details", 
  "modified": "2017-12-04 12:58:28.511147", 
  "name": "Quotation-relyfab_gst_details", 
  "no_copy": 0, 
  "options": null, 
  "permlevel": 0, 
  "precision": "", 
  "print_hide": 0, 
  "print_hide_if_no_value": 0, 
  "print_width": null, 
  "read_only": 0, 
  "report_hide": 0, 
  "reqd": 0, 
  "search_index": 0, 
  "unique": 0, 
  "width": null
 }, 
 {
  "allow_on_submit": 0, 
  "bold": 0, 
  "collapsible": 0, 
  "collapsible_depends_on": null, 
  "columns": 0, 
  "default": null, 
  "depends_on": null, 
  "description": null, 
  "docstatus": 0, 
  "doctype": "Custom Field", 
  "dt": "Quotation", 
  "fieldname": "challido_gst_ref_no", 
  "fieldtype": "Read Only", 
  "hidden": 0, 
  "ignore_user_permissions": 0, 
  "ignore_xss_filter": 0, 
  "in_global_search": 0, 
  "in_list_view": 0, 
  "in_standard_filter": 0, 
  "insert_after": "relyfab_gst_details", 
  "label": "GST Ref No", 
  "modified": "2017-12-04 13:52:20.825657", 
  "name": "Quotation-challido_gst_ref_no", 
  "no_copy": 0, 
  "options": "company.gst_ref_no", 
  "permlevel": 0, 
  "precision": "", 
  "print_hide": 0, 
  "print_hide_if_no_value": 0, 
  "print_width": null, 
  "read_only": 0, 
  "report_hide": 0, 
  "reqd": 0, 
  "search_index": 0, 
  "unique": 0, 
  "width": null
 }, 
 {
  "allow_on_submit": 0, 
  "bold": 0, 
  "collapsible": 0, 
  "collapsible_depends_on": null, 
  "columns": 0, 
  "default": null, 
  "depends_on": null, 
  "description": null, 
  "docstatus": 0, 
  "doctype": "Custom Field", 
  "dt": "Quotation", 
  "fieldname": "challido_pan_no", 
  "fieldtype": "Read Only", 
  "hidden": 0, 
  "ignore_user_permissions": 0, 
  "ignore_xss_filter": 0, 
  "in_global_search": 0, 
  "in_list_view": 0, 
  "in_standard_filter": 0, 
  "insert_after": "challido_gst_ref_no", 
  "label": "PAN No", 
  "modified": "2017-12-04 13:53:38.311492", 
  "name": "Quotation-challido_pan_no", 
  "no_copy": 0, 
  "options": "company.pan_no", 
  "permlevel": 0, 
  "precision": "", 
  "print_hide": 0, 
  "print_hide_if_no_value": 0, 
  "print_width": null, 
  "read_only": 0, 
  "report_hide": 0, 
  "reqd": 0, 
  "search_index": 0, 
  "unique": 0, 
  "width": null
 }, 
 {
  "allow_on_submit": 0, 
  "bold": 0, 
  "collapsible": 0, 
  "collapsible_depends_on": null, 
  "columns": 0, 
  "default": null, 
  "depends_on": null, 
  "description": null, 
  "docstatus": 0, 
  "doctype": "Custom Field", 
  "dt": "Quotation", 
  "fieldname": "challido_tin_no", 
  "fieldtype": "Read Only", 
  "hidden": 0, 
  "ignore_user_permissions": 0, 
  "ignore_xss_filter": 0, 
  "in_global_search": 0, 
  "in_list_view": 0, 
  "in_standard_filter": 0, 
  "insert_after": "challido_column_2", 
  "label": "TIN No", 
  "modified": "2017-12-04 13:54:21.997622", 
  "name": "Quotation-challido_tin_no", 
  "no_copy": 0, 
  "options": "company.tin_no", 
  "permlevel": 0, 
  "precision": "", 
  "print_hide": 0, 
  "print_hide_if_no_value": 0, 
  "print_width": null, 
  "read_only": 0, 
  "report_hide": 0, 
  "reqd": 0, 
  "search_index": 0, 
  "unique": 0, 
  "width": null
 }, 
 {
  "allow_on_submit": 0, 
  "bold": 0, 
  "collapsible": 0, 
  "collapsible_depends_on": null, 
  "columns": 0, 
  "default": null, 
  "depends_on": null, 
  "description": null, 
  "docstatus": 0, 
  "doctype": "Custom Field", 
  "dt": "Quotation", 
  "fieldname": "challido_column_2", 
  "fieldtype": "Column Break", 
  "hidden": 0, 
  "ignore_user_permissions": 0, 
  "ignore_xss_filter": 0, 
  "in_global_search": 0, 
  "in_list_view": 0, 
  "in_standard_filter": 0, 
  "insert_after": "challido_pan_no", 
  "label": "", 
  "modified": "2017-12-04 13:58:27.847810", 
  "name": "Quotation-challido_column_2", 
  "no_copy": 0, 
  "options": null, 
  "permlevel": 0, 
  "precision": "", 
  "print_hide": 0, 
  "print_hide_if_no_value": 0, 
  "print_width": null, 
  "read_only": 0, 
  "report_hide": 0, 
  "reqd": 0, 
  "search_index": 0, 
  "unique": 0, 
  "width": null
 }, 
 {
  "allow_on_submit": 0, 
  "bold": 0, 
  "collapsible": 0, 
  "collapsible_depends_on": null, 
  "columns": 0, 
  "default": null, 
  "depends_on": null, 
  "description": null, 
  "docstatus": 0, 
  "doctype": "Custom Field", 
  "dt": "Company", 
  "fieldname": "relyfab_bank_details", 
  "fieldtype": "Section Break", 
  "hidden": 0, 
  "ignore_user_permissions": 0, 
  "ignore_xss_filter": 0, 
  "in_global_search": 0, 
  "in_list_view": 0, 
  "in_standard_filter": 0, 
  "insert_after": "tin_no", 
  "label": "RelyFab Bank Details", 
  "modified": "2017-12-04 14:39:14.118837", 
  "name": "Company-relyfab_bank_details", 
  "no_copy": 0, 
  "options": null, 
  "permlevel": 0, 
  "precision": "", 
  "print_hide": 0, 
  "print_hide_if_no_value": 0, 
  "print_width": null, 
  "read_only": 0, 
  "report_hide": 0, 
  "reqd": 0, 
  "search_index": 0, 
  "unique": 0, 
  "width": null
 }, 
 {
  "allow_on_submit": 0, 
  "bold": 0, 
  "collapsible": 0, 
  "collapsible_depends_on": null, 
  "columns": 0, 
  "default": null, 
  "depends_on": null, 
  "description": null, 
  "docstatus": 0, 
  "doctype": "Custom Field", 
  "dt": "Company", 
  "fieldname": "bank_name", 
  "fieldtype": "Data", 
  "hidden": 0, 
  "ignore_user_permissions": 0, 
  "ignore_xss_filter": 0, 
  "in_global_search": 0, 
  "in_list_view": 0, 
  "in_standard_filter": 0, 
  "insert_after": "relyfab_bank_details", 
  "label": "Bank Name", 
  "modified": "2017-12-04 14:40:49.412414", 
  "name": "Company-bank_name", 
  "no_copy": 0, 
  "options": null, 
  "permlevel": 0, 
  "precision": "", 
  "print_hide": 0, 
  "print_hide_if_no_value": 0, 
  "print_width": null, 
  "read_only": 0, 
  "report_hide": 0, 
  "reqd": 0, 
  "search_index": 0, 
  "unique": 0, 
  "width": null
 }, 
 {
  "allow_on_submit": 0, 
  "bold": 0, 
  "collapsible": 0, 
  "collapsible_depends_on": null, 
  "columns": 0, 
  "default": null, 
  "depends_on": null, 
  "description": null, 
  "docstatus": 0, 
  "doctype": "Custom Field", 
  "dt": "Company", 
  "fieldname": "branch_name", 
  "fieldtype": "Data", 
  "hidden": 0, 
  "ignore_user_permissions": 0, 
  "ignore_xss_filter": 0, 
  "in_global_search": 0, 
  "in_list_view": 0, 
  "in_standard_filter": 0, 
  "insert_after": "bank_name", 
  "label": "Branch Name", 
  "modified": "2017-12-04 14:40:50.015773", 
  "name": "Company-branch_name", 
  "no_copy": 0, 
  "options": null, 
  "permlevel": 0, 
  "precision": "", 
  "print_hide": 0, 
  "print_hide_if_no_value": 0, 
  "print_width": null, 
  "read_only": 0, 
  "report_hide": 0, 
  "reqd": 0, 
  "search_index": 0, 
  "unique": 0, 
  "width": null
 }, 
 {
  "allow_on_submit": 0, 
  "bold": 0, 
  "collapsible": 0, 
  "collapsible_depends_on": null, 
  "columns": 0, 
  "default": null, 
  "depends_on": null, 
  "description": null, 
  "docstatus": 0, 
  "doctype": "Custom Field", 
  "dt": "Company", 
  "fieldname": "account_no", 
  "fieldtype": "Data", 
  "hidden": 0, 
  "ignore_user_permissions": 0, 
  "ignore_xss_filter": 0, 
  "in_global_search": 0, 
  "in_list_view": 0, 
  "in_standard_filter": 0, 
  "insert_after": "challido_column3", 
  "label": "Account No", 
  "modified": "2017-12-04 14:40:50.731453", 
  "name": "Company-account_no", 
  "no_copy": 0, 
  "options": null, 
  "permlevel": 0, 
  "precision": "", 
  "print_hide": 0, 
  "print_hide_if_no_value": 0, 
  "print_width": null, 
  "read_only": 0, 
  "report_hide": 0, 
  "reqd": 0, 
  "search_index": 0, 
  "unique": 0, 
  "width": null
 }, 
 {
  "allow_on_submit": 0, 
  "bold": 0, 
  "collapsible": 0, 
  "collapsible_depends_on": null, 
  "columns": 0, 
  "default": null, 
  "depends_on": null, 
  "description": null, 
  "docstatus": 0, 
  "doctype": "Custom Field", 
  "dt": "Company", 
  "fieldname": "ifsc_code", 
  "fieldtype": "Data", 
  "hidden": 0, 
  "ignore_user_permissions": 0, 
  "ignore_xss_filter": 0, 
  "in_global_search": 0, 
  "in_list_view": 0, 
  "in_standard_filter": 0, 
  "insert_after": "account_no", 
  "label": "IFSC Code", 
  "modified": "2017-12-04 14:40:51.045311", 
  "name": "Company-ifsc_code", 
  "no_copy": 0, 
  "options": null, 
  "permlevel": 0, 
  "precision": "", 
  "print_hide": 0, 
  "print_hide_if_no_value": 0, 
  "print_width": null, 
  "read_only": 0, 
  "report_hide": 0, 
  "reqd": 0, 
  "search_index": 0, 
  "unique": 0, 
  "width": null
 }, 
 {
  "allow_on_submit": 0, 
  "bold": 0, 
  "collapsible": 0, 
  "collapsible_depends_on": null, 
  "columns": 0, 
  "default": null, 
  "depends_on": null, 
  "description": null, 
  "docstatus": 0, 
  "doctype": "Custom Field", 
  "dt": "Quotation", 
  "fieldname": "relyfab_bank_details", 
  "fieldtype": "Section Break", 
  "hidden": 0, 
  "ignore_user_permissions": 0, 
  "ignore_xss_filter": 0, 
  "in_global_search": 0, 
  "in_list_view": 0, 
  "in_standard_filter": 0, 
  "insert_after": "challido_tin_no", 
  "label": "RelyFab Bank Details", 
  "modified": "2017-12-04 14:43:30.014571", 
  "name": "Quotation-relyfab_bank_details", 
  "no_copy": 0, 
  "options": null, 
  "permlevel": 0, 
  "precision": "", 
  "print_hide": 0, 
  "print_hide_if_no_value": 0, 
  "print_width": null, 
  "read_only": 0, 
  "report_hide": 0, 
  "reqd": 0, 
  "search_index": 0, 
  "unique": 0, 
  "width": null
 }, 
 {
  "allow_on_submit": 0, 
  "bold": 0, 
  "collapsible": 0, 
  "collapsible_depends_on": null, 
  "columns": 0, 
  "default": null, 
  "depends_on": null, 
  "description": null, 
  "docstatus": 0, 
  "doctype": "Custom Field", 
  "dt": "Quotation", 
  "fieldname": "challido_bank_name", 
  "fieldtype": "Read Only", 
  "hidden": 0, 
  "ignore_user_permissions": 0, 
  "ignore_xss_filter": 0, 
  "in_global_search": 0, 
  "in_list_view": 0, 
  "in_standard_filter": 0, 
  "insert_after": "relyfab_bank_details", 
  "label": "Challido Bank Name", 
  "modified": "2017-12-04 14:43:30.462390", 
  "name": "Quotation-challido_bank_name", 
  "no_copy": 0, 
  "options": "company.bank_name", 
  "permlevel": 0, 
  "precision": "", 
  "print_hide": 0, 
  "print_hide_if_no_value": 0, 
  "print_width": null, 
  "read_only": 0, 
  "report_hide": 0, 
  "reqd": 0, 
  "search_index": 0, 
  "unique": 0, 
  "width": null
 }, 
 {
  "allow_on_submit": 0, 
  "bold": 0, 
  "collapsible": 0, 
  "collapsible_depends_on": null, 
  "columns": 0, 
  "default": null, 
  "depends_on": null, 
  "description": null, 
  "docstatus": 0, 
  "doctype": "Custom Field", 
  "dt": "Quotation", 
  "fieldname": "challido_branch_name", 
  "fieldtype": "Read Only", 
  "hidden": 0, 
  "ignore_user_permissions": 0, 
  "ignore_xss_filter": 0, 
  "in_global_search": 0, 
  "in_list_view": 0, 
  "in_standard_filter": 0, 
  "insert_after": "challido_bank_name", 
  "label": "Challido Branch Name", 
  "modified": "2017-12-04 14:43:30.983872", 
  "name": "Quotation-challido_branch_name", 
  "no_copy": 0, 
  "options": "company.branch_name", 
  "permlevel": 0, 
  "precision": "", 
  "print_hide": 0, 
  "print_hide_if_no_value": 0, 
  "print_width": null, 
  "read_only": 0, 
  "report_hide": 0, 
  "reqd": 0, 
  "search_index": 0, 
  "unique": 0, 
  "width": null
 }, 
 {
  "allow_on_submit": 0, 
  "bold": 0, 
  "collapsible": 0, 
  "collapsible_depends_on": null, 
  "columns": 0, 
  "default": null, 
  "depends_on": null, 
  "description": null, 
  "docstatus": 0, 
  "doctype": "Custom Field", 
  "dt": "Quotation", 
  "fieldname": "challido_account_no", 
  "fieldtype": "Read Only", 
  "hidden": 0, 
  "ignore_user_permissions": 0, 
  "ignore_xss_filter": 0, 
  "in_global_search": 0, 
  "in_list_view": 0, 
  "in_standard_filter": 0, 
  "insert_after": "challido_column3", 
  "label": "Challido Account No", 
  "modified": "2017-12-04 14:43:31.479443", 
  "name": "Quotation-challido_account_no", 
  "no_copy": 0, 
  "options": "company.account_no", 
  "permlevel": 0, 
  "precision": "", 
  "print_hide": 0, 
  "print_hide_if_no_value": 0, 
  "print_width": null, 
  "read_only": 0, 
  "report_hide": 0, 
  "reqd": 0, 
  "search_index": 0, 
  "unique": 0, 
  "width": null
 }, 
 {
  "allow_on_submit": 0, 
  "bold": 0, 
  "collapsible": 0, 
  "collapsible_depends_on": null, 
  "columns": 0, 
  "default": null, 
  "depends_on": null, 
  "description": null, 
  "docstatus": 0, 
  "doctype": "Custom Field", 
  "dt": "Quotation", 
  "fieldname": "challido_ifsc_code", 
  "fieldtype": "Read Only", 
  "hidden": 0, 
  "ignore_user_permissions": 0, 
  "ignore_xss_filter": 0, 
  "in_global_search": 0, 
  "in_list_view": 0, 
  "in_standard_filter": 0, 
  "insert_after": "challido_account_no", 
  "label": "Challido IFSC Code", 
  "modified": "2017-12-04 14:43:32.051399", 
  "name": "Quotation-challido_ifsc_code", 
  "no_copy": 0, 
  "options": "company.ifsc_code", 
  "permlevel": 0, 
  "precision": "", 
  "print_hide": 0, 
  "print_hide_if_no_value": 0, 
  "print_width": null, 
  "read_only": 0, 
  "report_hide": 0, 
  "reqd": 0, 
  "search_index": 0, 
  "unique": 0, 
  "width": null
 }, 
 {
  "allow_on_submit": 0, 
  "bold": 0, 
  "collapsible": 0, 
  "collapsible_depends_on": null, 
  "columns": 0, 
  "default": null, 
  "depends_on": null, 
  "description": null, 
  "docstatus": 0, 
  "doctype": "Custom Field", 
  "dt": "Company", 
  "fieldname": "challido_column3", 
  "fieldtype": "Column Break", 
  "hidden": 0, 
  "ignore_user_permissions": 0, 
  "ignore_xss_filter": 0, 
  "in_global_search": 0, 
  "in_list_view": 0, 
  "in_standard_filter": 0, 
  "insert_after": "branch_name", 
  "label": "", 
  "modified": "2017-12-04 14:51:18.655421", 
  "name": "Company-challido_column3", 
  "no_copy": 0, 
  "options": null, 
  "permlevel": 0, 
  "precision": "", 
  "print_hide": 0, 
  "print_hide_if_no_value": 0, 
  "print_width": null, 
  "read_only": 0, 
  "report_hide": 0, 
  "reqd": 0, 
  "search_index": 0, 
  "unique": 0, 
  "width": null
 }, 
 {
  "allow_on_submit": 0, 
  "bold": 0, 
  "collapsible": 0, 
  "collapsible_depends_on": null, 
  "columns": 0, 
  "default": null, 
  "depends_on": null, 
  "description": null, 
  "docstatus": 0, 
  "doctype": "Custom Field", 
  "dt": "Quotation", 
  "fieldname": "challido_column3", 
  "fieldtype": "Column Break", 
  "hidden": 0, 
  "ignore_user_permissions": 0, 
  "ignore_xss_filter": 0, 
  "in_global_search": 0, 
  "in_list_view": 0, 
  "in_standard_filter": 0, 
  "insert_after": "challido_branch_name", 
  "label": "", 
  "modified": "2017-12-04 14:56:20.643346", 
  "name": "Quotation-challido_column3", 
  "no_copy": 0, 
  "options": null, 
  "permlevel": 0, 
  "precision": "", 
  "print_hide": 0, 
  "print_hide_if_no_value": 0, 
  "print_width": null, 
  "read_only": 0, 
  "report_hide": 0, 
  "reqd": 0, 
  "search_index": 0, 
  "unique": 0, 
  "width": null
 }, 
 {
  "allow_on_submit": 0, 
  "bold": 0, 
  "collapsible": 1, 
  "collapsible_depends_on": null, 
  "columns": 0, 
  "default": null, 
  "depends_on": null, 
  "description": null, 
  "docstatus": 0, 
  "doctype": "Custom Field", 
  "dt": "Production Order", 
  "fieldname": "relyfab_address_section", 
  "fieldtype": "Section Break", 
  "hidden": 0, 
  "ignore_user_permissions": 0, 
  "ignore_xss_filter": 0, 
  "in_global_search": 0, 
  "in_list_view": 0, 
  "in_standard_filter": 0, 
  "insert_after": "amended_from", 
  "label": "RELYFAB Address Section", 
  "modified": "2017-12-06 12:12:07.826025", 
  "name": "Production Order-relyfab_address_section", 
  "no_copy": 0, 
  "options": null, 
  "permlevel": 0, 
  "precision": "", 
  "print_hide": 0, 
  "print_hide_if_no_value": 0, 
  "print_width": null, 
  "read_only": 0, 
  "report_hide": 0, 
  "reqd": 0, 
  "search_index": 0, 
  "unique": 0, 
  "width": null
 }, 
 {
  "allow_on_submit": 0, 
  "bold": 0, 
  "collapsible": 0, 
  "collapsible_depends_on": null, 
  "columns": 0, 
  "default": null, 
  "depends_on": null, 
  "description": null, 
  "docstatus": 0, 
  "doctype": "Custom Field", 
  "dt": "Production Order", 
  "fieldname": "challido_company_name", 
  "fieldtype": "Read Only", 
  "hidden": 0, 
  "ignore_user_permissions": 0, 
  "ignore_xss_filter": 0, 
  "in_global_search": 0, 
  "in_list_view": 0, 
  "in_standard_filter": 0, 
  "insert_after": "relyfab_address_section", 
  "label": "Company Name", 
  "modified": "2017-12-06 12:12:08.096451", 
  "name": "Production Order-challido_company_name", 
  "no_copy": 0, 
  "options": "company.challido_company_name", 
  "permlevel": 0, 
  "precision": "", 
  "print_hide": 0, 
  "print_hide_if_no_value": 0, 
  "print_width": null, 
  "read_only": 0, 
  "report_hide": 0, 
  "reqd": 0, 
  "search_index": 0, 
  "unique": 0, 
  "width": null
 }, 
 {
  "allow_on_submit": 0, 
  "bold": 0, 
  "collapsible": 0, 
  "collapsible_depends_on": null, 
  "columns": 0, 
  "default": null, 
  "depends_on": null, 
  "description": null, 
  "docstatus": 0, 
  "doctype": "Custom Field", 
  "dt": "Production Order", 
  "fieldname": "challido_address_line_1", 
  "fieldtype": "Read Only", 
  "hidden": 0, 
  "ignore_user_permissions": 0, 
  "ignore_xss_filter": 0, 
  "in_global_search": 0, 
  "in_list_view": 0, 
  "in_standard_filter": 0, 
  "insert_after": "challido_company_name", 
  "label": "Address Line 1", 
  "modified": "2017-12-06 12:13:21.949675", 
  "name": "Production Order-challido_address_line_1", 
  "no_copy": 0, 
  "options": "company.challido_address_line_1", 
  "permlevel": 0, 
  "precision": "", 
  "print_hide": 0, 
  "print_hide_if_no_value": 0, 
  "print_width": null, 
  "read_only": 0, 
  "report_hide": 0, 
  "reqd": 0, 
  "search_index": 0, 
  "unique": 0, 
  "width": null
 }, 
 {
  "allow_on_submit": 0, 
  "bold": 0, 
  "collapsible": 0, 
  "collapsible_depends_on": null, 
  "columns": 0, 
  "default": null, 
  "depends_on": null, 
  "description": null, 
  "docstatus": 0, 
  "doctype": "Custom Field", 
  "dt": "Production Order", 
  "fieldname": "challido_address_line_2", 
  "fieldtype": "Read Only", 
  "hidden": 0, 
  "ignore_user_permissions": 0, 
  "ignore_xss_filter": 0, 
  "in_global_search": 0, 
  "in_list_view": 0, 
  "in_standard_filter": 0, 
  "insert_after": "challido_column1", 
  "label": "Address Line 2", 
  "modified": "2017-12-06 12:15:11.323178", 
  "name": "Production Order-challido_address_line_2", 
  "no_copy": 0, 
  "options": "company.challido_address_line_2", 
  "permlevel": 0, 
  "precision": "", 
  "print_hide": 0, 
  "print_hide_if_no_value": 0, 
  "print_width": null, 
  "read_only": 0, 
  "report_hide": 0, 
  "reqd": 0, 
  "search_index": 0, 
  "unique": 0, 
  "width": null
 }, 
 {
  "allow_on_submit": 0, 
  "bold": 0, 
  "collapsible": 0, 
  "collapsible_depends_on": null, 
  "columns": 0, 
  "default": null, 
  "depends_on": null, 
  "description": null, 
  "docstatus": 0, 
  "doctype": "Custom Field", 
  "dt": "Production Order", 
  "fieldname": "address_line_3", 
  "fieldtype": "Read Only", 
  "hidden": 0, 
  "ignore_user_permissions": 0, 
  "ignore_xss_filter": 0, 
  "in_global_search": 0, 
  "in_list_view": 0, 
  "in_standard_filter": 0, 
  "insert_after": "challido_address_line_2", 
  "label": "Address Line 3", 
  "modified": "2017-12-06 12:16:22.949250", 
  "name": "Production Order-address_line_3", 
  "no_copy": 0, 
  "options": "company.challido_address_line_3", 
  "permlevel": 0, 
  "precision": "", 
  "print_hide": 0, 
  "print_hide_if_no_value": 0, 
  "print_width": null, 
  "read_only": 0, 
  "report_hide": 0, 
  "reqd": 0, 
  "search_index": 0, 
  "unique": 0, 
  "width": null
 }, 
 {
  "allow_on_submit": 0, 
  "bold": 0, 
  "collapsible": 0, 
  "collapsible_depends_on": null, 
  "columns": 0, 
  "default": null, 
  "depends_on": null, 
  "description": null, 
  "docstatus": 0, 
  "doctype": "Custom Field", 
  "dt": "Production Order", 
  "fieldname": "challido_column1", 
  "fieldtype": "Column Break", 
  "hidden": 0, 
  "ignore_user_permissions": 0, 
  "ignore_xss_filter": 0, 
  "in_global_search": 0, 
  "in_list_view": 0, 
  "in_standard_filter": 0, 
  "insert_after": "challido_phone_1", 
  "label": "", 
  "modified": "2017-12-06 12:16:44.524493", 
  "name": "Production Order-challido_column1", 
  "no_copy": 0, 
  "options": null, 
  "permlevel": 0, 
  "precision": "", 
  "print_hide": 0, 
  "print_hide_if_no_value": 0, 
  "print_width": null, 
  "read_only": 0, 
  "report_hide": 0, 
  "reqd": 0, 
  "search_index": 0, 
  "unique": 0, 
  "width": null
 }, 
 {
  "allow_on_submit": 0, 
  "bold": 0, 
  "collapsible": 0, 
  "collapsible_depends_on": null, 
  "columns": 0, 
  "default": null, 
  "depends_on": null, 
  "description": null, 
  "docstatus": 0, 
  "doctype": "Custom Field", 
  "dt": "Production Order", 
  "fieldname": "po_number", 
  "fieldtype": "Link", 
  "hidden": 0, 
  "ignore_user_permissions": 0, 
  "ignore_xss_filter": 0, 
  "in_global_search": 0, 
  "in_list_view": 0, 
  "in_standard_filter": 0, 
  "insert_after": "sales_order", 
  "label": "PO Number", 
  "modified": "2017-12-06 14:09:35.525645", 
  "name": "Production Order-po_number", 
  "no_copy": 0, 
  "options": "Purchase Order", 
  "permlevel": 0, 
  "precision": "", 
  "print_hide": 0, 
  "print_hide_if_no_value": 0, 
  "print_width": null, 
  "read_only": 0, 
  "report_hide": 0, 
  "reqd": 0, 
  "search_index": 0, 
  "unique": 0, 
  "width": null
 }, 
 {
  "allow_on_submit": 0, 
  "bold": 0, 
  "collapsible": 0, 
  "collapsible_depends_on": null, 
  "columns": 0, 
  "default": null, 
  "depends_on": null, 
  "description": null, 
  "docstatus": 0, 
  "doctype": "Custom Field", 
  "dt": "Production Order", 
  "fieldname": "po_date", 
  "fieldtype": "Date", 
  "hidden": 0, 
  "ignore_user_permissions": 0, 
  "ignore_xss_filter": 0, 
  "in_global_search": 0, 
  "in_list_view": 0, 
  "in_standard_filter": 0, 
  "insert_after": "po_number", 
  "label": "PO Date", 
  "modified": "2017-12-06 14:09:35.854359", 
  "name": "Production Order-po_date", 
  "no_copy": 0, 
  "options": "", 
  "permlevel": 0, 
  "precision": "", 
  "print_hide": 0, 
  "print_hide_if_no_value": 0, 
  "print_width": null, 
  "read_only": 1, 
  "report_hide": 0, 
  "reqd": 0, 
  "search_index": 0, 
  "unique": 0, 
  "width": null
 }, 
 {
  "allow_on_submit": 0, 
  "bold": 0, 
  "collapsible": 0, 
  "collapsible_depends_on": null, 
  "columns": 0, 
  "default": null, 
  "depends_on": null, 
  "description": null, 
  "docstatus": 0, 
  "doctype": "Custom Field", 
  "dt": "Production Order", 
  "fieldname": "cusotmer", 
  "fieldtype": "Link", 
  "hidden": 0, 
  "ignore_user_permissions": 0, 
  "ignore_xss_filter": 0, 
  "in_global_search": 0, 
  "in_list_view": 0, 
  "in_standard_filter": 0, 
  "insert_after": "use_multi_level_bom", 
  "label": "Customer", 
  "modified": "2017-12-06 14:52:39.378097", 
  "name": "Production Order-cusotmer", 
  "no_copy": 0, 
  "options": "Customer", 
  "permlevel": 0, 
  "precision": "", 
  "print_hide": 0, 
  "print_hide_if_no_value": 0, 
  "print_width": null, 
  "read_only": 0, 
  "report_hide": 0, 
  "reqd": 0, 
  "search_index": 0, 
  "unique": 0, 
  "width": null
 }, 
 {
  "allow_on_submit": 0, 
  "bold": 0, 
  "collapsible": 0, 
  "collapsible_depends_on": null, 
  "columns": 0, 
  "default": null, 
  "depends_on": null, 
  "description": null, 
  "docstatus": 0, 
  "doctype": "Custom Field", 
  "dt": "Production Order", 
  "fieldname": "challido_email_1", 
  "fieldtype": "Read Only", 
  "hidden": 0, 
  "ignore_user_permissions": 0, 
  "ignore_xss_filter": 0, 
  "in_global_search": 0, 
  "in_list_view": 0, 
  "in_standard_filter": 0, 
  "insert_after": "challido_address_line_1", 
  "label": "Challido Email 1", 
  "modified": "2017-12-07 11:35:11.829611", 
  "name": "Production Order-challido_email_1", 
  "no_copy": 0, 
  "options": "company.challido_email_1", 
  "permlevel": 0, 
  "precision": "", 
  "print_hide": 0, 
  "print_hide_if_no_value": 0, 
  "print_width": null, 
  "read_only": 0, 
  "report_hide": 0, 
  "reqd": 0, 
  "search_index": 0, 
  "unique": 0, 
  "width": null
 }, 
 {
  "allow_on_submit": 0, 
  "bold": 0, 
  "collapsible": 0, 
  "collapsible_depends_on": null, 
  "columns": 0, 
  "default": null, 
  "depends_on": null, 
  "description": null, 
  "docstatus": 0, 
  "doctype": "Custom Field", 
  "dt": "Production Order", 
  "fieldname": "challido_email_2", 
  "fieldtype": "Read Only", 
  "hidden": 0, 
  "ignore_user_permissions": 0, 
  "ignore_xss_filter": 0, 
  "in_global_search": 0, 
  "in_list_view": 0, 
  "in_standard_filter": 0, 
  "insert_after": "address_line_3", 
  "label": "Challido Email 2", 
  "modified": "2017-12-07 11:41:38.541257", 
  "name": "Production Order-challido_email_2", 
  "no_copy": 0, 
  "options": "company.challido_email_2", 
  "permlevel": 0, 
  "precision": "", 
  "print_hide": 0, 
  "print_hide_if_no_value": 0, 
  "print_width": null, 
  "read_only": 0, 
  "report_hide": 0, 
  "reqd": 0, 
  "search_index": 0, 
  "unique": 0, 
  "width": null
 }, 
 {
  "allow_on_submit": 0, 
  "bold": 0, 
  "collapsible": 0, 
  "collapsible_depends_on": null, 
  "columns": 0, 
  "default": null, 
  "depends_on": null, 
  "description": null, 
  "docstatus": 0, 
  "doctype": "Custom Field", 
  "dt": "Production Order", 
  "fieldname": "challido_phone_1", 
  "fieldtype": "Read Only", 
  "hidden": 0, 
  "ignore_user_permissions": 0, 
  "ignore_xss_filter": 0, 
  "in_global_search": 0, 
  "in_list_view": 0, 
  "in_standard_filter": 0, 
  "insert_after": "challido_email_1", 
  "label": "Challido Phone 1", 
  "modified": "2017-12-07 11:42:10.310369", 
  "name": "Production Order-challido_phone_1", 
  "no_copy": 0, 
  "options": "company.challido_phone_1", 
  "permlevel": 0, 
  "precision": "", 
  "print_hide": 0, 
  "print_hide_if_no_value": 0, 
  "print_width": null, 
  "read_only": 0, 
  "report_hide": 0, 
  "reqd": 0, 
  "search_index": 0, 
  "unique": 0, 
  "width": null
 }, 
 {
  "allow_on_submit": 0, 
  "bold": 0, 
  "collapsible": 0, 
  "collapsible_depends_on": null, 
  "columns": 0, 
  "default": null, 
  "depends_on": null, 
  "description": null, 
  "docstatus": 0, 
  "doctype": "Custom Field", 
  "dt": "Production Order", 
  "fieldname": "challido_phone_2", 
  "fieldtype": "Read Only", 
  "hidden": 0, 
  "ignore_user_permissions": 0, 
  "ignore_xss_filter": 0, 
  "in_global_search": 0, 
  "in_list_view": 0, 
  "in_standard_filter": 0, 
  "insert_after": "challido_email_2", 
  "label": "Challido Phone 2", 
  "modified": "2017-12-07 11:51:13.247432", 
  "name": "Production Order-challido_phone_2", 
  "no_copy": 0, 
  "options": "company.challido_phone_2", 
  "permlevel": 0, 
  "precision": "", 
  "print_hide": 0, 
  "print_hide_if_no_value": 0, 
  "print_width": null, 
  "read_only": 0, 
  "report_hide": 0, 
  "reqd": 0, 
  "search_index": 0, 
  "unique": 0, 
  "width": null
 }, 
 {
  "allow_on_submit": 1, 
  "bold": 0, 
  "collapsible": 0, 
  "collapsible_depends_on": null, 
  "columns": 0, 
  "default": null, 
  "depends_on": null, 
  "description": null, 
  "docstatus": 0, 
  "doctype": "Custom Field", 
  "dt": "Sales Order", 
  "fieldname": "workflow_state", 
  "fieldtype": "Link", 
  "hidden": 0, 
  "ignore_user_permissions": 0, 
  "ignore_xss_filter": 0, 
  "in_global_search": 0, 
  "in_list_view": 0, 
  "in_standard_filter": 0, 
  "insert_after": null, 
  "label": "Workflow State", 
  "modified": "2017-12-08 09:34:23.331822", 
  "name": "Sales Order-workflow_state", 
  "no_copy": 0, 
  "options": "Workflow State", 
  "permlevel": 0, 
  "precision": "", 
  "print_hide": 0, 
  "print_hide_if_no_value": 0, 
  "print_width": null, 
  "read_only": 0, 
  "report_hide": 0, 
  "reqd": 0, 
  "search_index": 0, 
  "unique": 0, 
  "width": null
 }
]